ID Company,Empresa,Telefono,Contacto,Correo electronico,Giro,Convenio,Comentario,Activo
1841,"A AND G TRUCKING GROUP INC, S DE R.L DE C.V",664 123 53 36,VICTOR GARCÍA,rh@agtruckinginc.com,SERVICIO-TRANSPORTE,N/A,blablabla,false
1842,"ACRYLICON MEXICO , S.A DE C.V",(664) 623-8199,JEANETH VALDEZ,jvaldez@mundoconcreto.mx,INDUSTRIAL,SI,,false
1843,"ACRYLART, S.A DE C.V",625-11-16,NORMA CARRILLO,administración@acrylart.com.mx,INDUSTRIAL,SI,,false
1844,"ADVANCED TECHNOLOGY SERVICES, MEXICO S. DE R. L. DE C.V. (PRESTADORA DE SERVICIOS DE PERSONAL ATS)",6531190082,LAURA REYNOSO,lreynoso@advancedtech.com / csanchez@advancedtech.com,INDUSTRIAL,SI,test,false
1845,"ADVANCIO, S.A DE C.V",(646) 206-0462,BEATRIZ FILATOFF,careers@advancio.com,INDUSTRIAL,SI,ssssss,true
1846,AERODESIGN DE MÉXICO S.A DE C.V,(664) 626 05 55 Ext. 108 / 190,ING. KENIA SAMARA HERNANDEZ BASTISAS / LIC. GUSTAVO TREVIÑO ARZOZ / LIC. ESTELA GÓMEZ RAMOS,samara.hernandez@zodiacaerospace.com / estela.gomez@cdzodiacaerospace.com gustavotrevino@cdzodiacaerospace.com,INDUSTRIAL,SI,asdasd,true
1847,AGENCIA ADUANAL AISPURO LAVENANT S.C,647 20 10,C. MIGUEL ANGEL CHAPARRO GARCÍA,bodegaaispuro@gmail.com,SERVICIO,SI,,true
1848,AGENCIA ADUANAL ENRIQUE TRONCOSO S.C.,664-682-82-80 EXT: 123,LIC. JANETH PEÑALOZA PINEDA/ JEFA DE DEPARTAMENTO,janeth@troncoso.com,SERVICIO,SI,,false
1849,AGENCIA ADUANAL G GLOBAL S.A DE C.V.,01 664 380 50 28,LIC. MARIA FERNANDA LOZADA PANIAGUA,talento@g-global.com.mx,SERVICIO,SI,,true
1850,AGENCIA ADUANAL HODOYAN NAVARRO S.C.,(664) 683 11 50,LIC. FRANCISCO JAVIER CORONA PANTOJA/MAGDALENA MEDINA,javier.corona@otl.mx/rhumanos@hodoyan-navarro.com.mx,SERVICIO,SI,,false
1851,AGENCIA ADUANAL JORGE DIAZ S.C,623 23 30 Ext. 275,LIC. BIANCA ROCIO CELAYA DORANTES / ADRIANA SALINAS MÁNRIQUEZ,mbalderas@mb.jdgroup.net/reclutamiento@mb.jdgroup.net / asalinas@mb-jdgroup.net,SERVICIO,SI,,true
1852,AGENCIA ADUANAL LARES COMERCIO EXTERIOR S.C,(664) 431 44 91,LIC. OSCAR MALCON QUEZADA DEL CASTILLO,lic.malcon@hotmail.com,SERVICIO,SI,,true
1853,AGENCIA ADUANAL OBREGON S.C.,664-623 20 00 Ext. 2216/(664) 134-5225,ING. JOSÉ RAFAEL GRANIEL MARTÍNEZ,jose.graniel@aa-obregon.com,SERVICIO,SI,,false
1854,AGENCIA ADUANAL OLAGUE,(664) 208 17 58,ING. JUAN ANTONIO OLAGUE FRIAS,aolague@aaolague.com,SERVICIO,SI,,true
1855,"AGENCIA ADUANAL PEÑA PÉREZ, S.C.",(664)208-4816,LIC. ANA HERNÁNDEZ,ana.hernandez@perezortiz.com.mx,SERVICIO,SI,,false
1856,AGENCIA ADUANAL PEREZ ORTIZ,"6,649,734,700",ARACELI BAUTISTA B. / LIC. GABRIELA VIERA SANCHEZ,recursos.humanos@perezortiz.com.mx / auxiliar.rh2@perezortiz.com.mx,SERVICIO,SI,,true
1857,AGENCIA ADUANAL PIÑERA CHAVEZ S R.L DE C.V,(664) 607-9331 y (664) 607-0768,VICENTE CORRALES VERDUZCO,vicente@pinera.com,SERVICIO,SI,,true
1858,AGENCIA ADUANAL RODRIGUEZ Y CIA S.C,(664) 683 10 22 Ext. 1125,ING. OSCAR JESÚS ONTIVEROS ANTUNEZ / L.C.I. XOCHITL ESPINOZA MEZA,servicios@aar.com.mx / xespinoza@aar.com.mx,SERVICIO,SI,,true
1859,AGENCIA ADUANAL ROMERO GALAVIZ S.C,52 664 647 26 51 Ext. 117,LIC. EDUARDO MARQUEZ SUAREZ/ASERET LOPEZ MORALES,operaciontj@romeroestrada.com/aseret@romeroestrada.com / facturacion@romeroestrada.com,SERVICIO,SI,,true
1860,AGENCIA ADUANAL SORIANO Y ASOCIADOS S.C.,(664) 973 73 00,LIC. ANDRÉS GILES DE ANDA/LIC. SUSANA G. CUAXILOA CASTRO,operacion@a-aduanalsoriano.com.mx/juridico@a-aduanalsoriano.com.mx,SERVICIO,SI,,true
1861,AGENCIA ADUANERA DE AMERICA EN TIJUANA S.C.,647 82 82 / 664 06 61,VICTOR HUGO IBARRA,victor.ibarra@aaamerica.com.mx,SERVICIO,SI,,true
1862,AGENCIA ADUANAL PIÑERA CHAVEZ S DE R. L. DE C.V,(664) 607 07 68,ING. MARIA SUSANA PÉREZ PAZ,susana@pinera.com,SERVICIO,SI,,true
1863,AGENCIA INTERNACIONAL ESTRADA E IBARRA S.C,664-451-24-93,LIC. LEONOR ANGELICA ESTRADA CONTRERAS/ GERENTE GENERAL,leonor.estrada@estradaibarrasc.com,SERVICIO,SI,,true
1864,ASOCIACIÓN DE AGENTES ADUANALES DE TIJUANA Y TECATE A.C.,664-682-85-55,LIC. ANGELICA CRUZ,ecruz@agentesaduanales.org,SERVICIO,SI,,true
1865,"AIT WORLDWIDE LOGISTICS, S DE R.L. DE C.V.",664-205-1143,KARINA VARGAS HERNÁNDEZ/ INTERNACIONAL OPS SUPERVISOR,kvargas@aitworldwide.com,INDUSTRIAL,SI,,true
1866,"ALIANZAS AFECTUOSAS, SA. DE C.V",686 526 5440,LIC. NUBIA VIANEY NUÑEZ RAMOS,nnunez@opefar.com,FARMACÉUTICA,SI,,true
1867,ALIMENTOS Y SALSAS DE MÉXICO S.A DE C.V,(665) 654-0791 Ext. 1115,ROBERTO MERCADO,roberto.mercado@alimentosysalsas.com,INDUSTRIAL,N/A,,true
1868,ALVAREZ CARMONA ASOCIADOS S. C.,(664) 684-0722 Ext. 115,C.P. SOFÍA ÁLVAREZ CARMONA,sofia@alvarezcarmona.com,SERVICIO,N/A,,true
1869,AMEX DE MEXICO S.A DE C.V.,"6,646,233,704",RECURSOS HUMANOS,hrtijuana@steelcase.com,INDUSTRIAL,SI,,true
1870,AMEX UPHOLSTERY S DE R.L DE C.V,(664) 903-3050,DORA MORALES GONZALEZ / NEYED TORRES MARQUEZ,amexupholestery@hotmail.com / neyedt@margecarson.com,MANUFACTURA,SI,,true
1871,APTIV CONTRACT SERVICES TIJUANA S. DE R. L. DE C.V.,(664) 622 61 75,LIC. VICTOR CAMACHO,victor.camacho-hidalgo@aptiv.com,SERVICIO,SI,,true
1872,ARGUS TECNOLOGIA S.A DE C.V,215-0657 (664) 33 7908 8,EDGAR HERNÁNDEZ,"edgar@argustecnologias.com, fernanda@argustecnologias.com",INDUSTRIAL,SI,,true
1873,"ARKALED DE SUMINISTROS INDUSTRIALES, S DE R.L DE C.V",664 629 4879/ 215-0657 /(664) 33 7908 8,CHRISTOPHER MANDUJANO,integracion.ventas@arkaled.com,INDUSTRIAL,SI,,true
1874,ARNESES Y CONEXIONES S.A DE C.V,(664) 623 37 00,LETICIA MORALES MORALES,leticia_morales@osca-arcosa.com,INDUSTRIAL,SI,,true
1875,ARREGA TECNOLOGÍA S.A.P.I DE C.V.,664 608-9263,RAUL MARTINEZ FUENTES / LAURA ESCANDON,sgsoto@arregaindustrial.com / empleo@arregaindustrial.com,INDUSTRIAL,SI,,true
1876,ARRIS GROUP DE MÉXICO S.A DE C.V,(664) 512-7309,ALEJANDRO ARELLANO,reclutamiento@commscope.com,SERVICIO,N/A,,true
1877,ARTESANIAS BAJA S. DE R.L. DE C.V.,624-93-53,LIC. PAULO CESAR AMADOR NAVARRO/ SUPERINTENDENTE DE LOGÍSTICA,pamador@hubbell.com,SERVICIO,SI,,true
1878,ARVI SERVICIOS INTEGRALES S.C.,(664) 604 67 11,JUAN CARLOS ARIAS VILLA,juancarlosav28@gmail.com,INDUSTRIAL,SI,,true
1879,ASCENCIO SOULES Y CÍA S.C,52 664 104 14 12 y 18,C.P. CANDELARIO ASCENCIO SOULES,ascenciocp@gmail.com/nasoules@hotmail.com,SERVICIO,N/A,,true
1880,"ASEN NOROESTE, S. DE R.L DE C.V",378-73-88,ING. VICTOR BARRÓN,victor@asen.com.mx,INDUSTRIAL,SI,,true
1881,ASESORES ADUANALES Y COMERCIALES S.A.,506-2234-2455,RODOLFO ARCE PORTUGUEZ/ PRESIDENTE,rodoarce@racsa.co.cr,SERVICIO,SI,,true
1882,ASESORES INTEGRALES FISCALES Y FINANCIEROS,664-683-1220,C.P. ANA ISABEL GRANADOS CAMARGO/ CONTADORA,asiffin@asiffin.com,SERVICIO,SI,,true
1883,ASESORES TECNICOS Y MANTENIMENTO DE ESTACIONES DE SERVICIOS S.A DE C.V.,902 72 00 / 7201,C.P. BRENDA DEL CARMEN ACEVEDO RAMIREZ,atmtijuana@gmail.com,SERVICIO,SI,,true
1884,"ASESORÍAS Y CONSTRUCCIONES ESPECIALIZADAS, S.A. DE C.V.",625-4238 y 625-5060,LIC. YESENIA VILLALOBOS ESTRADA,yesenia.villalobos@acesaco.com / olegario@acesagp.com.mx,INDUSTRIAL,SI,,true
1885,ASESORIAS Y SEVICIOS EN COMUNICACIONES Y ELECTRONICA S.A. DE C.V.,664-622-1720,ING. VICENTE HERNÁNDEZ/ DIRECTOR,vicente@nrgia.mx,SERVICIO,SI,,true
1886,ASK INDEX DE MÉXICO S.A DE C.V,607 2786 EXT 101,JORGE ORTÍZ,jorge.ortiz@askusnet.com,INDUSTRIAL,SI,,true
1887,ASOMBRO MARKETING,664-684-14-32/ 381-53-85,ARTURO ROCHA ROBLEDO,arturo@asombromarjeting.com,SERVICIOS,N/A,,true
1888,AUDICO COMERCIO EXTERIOR S.C,6643820846,LIC. REIMY MARES,rmares@audico.com.mx,SERVICIO,N/A,,true
1889,AUTO ALFOMBRAS CAMSA S.A. DE C.V.,(664) 636-1166,C.P. MARGARITA ZARILLANA / ING. RAFAEL VALENZUELA FLORES,ventas@alfombrascamsa.com.mx / calidad.camsa@hotmail.com,COMERCIO,SI,,true
1890,AUTOBUSES DE LA BAJA CALIFORNIA S.A. DE C.V.,104-74-00 ext 7414 / 104 74 00 Ext 7458,ANA EDITH / AZUCENA NARVAEZ,eortiz@bajapack.com/ecastillo_65@mardecortes.net / anevarez@abc.com.mx,SERVICIO,SI,,true
1891,"AUTOLIV SAFETY TECHNOLOGY, S.A. DE C.V.",664-625-53-02 ext 88065,LILIANA NOGUERÓN / LIC. NALLELY CECILIA COTA,liliana.nogueron@autoliv.com ast.reclutamiento@autoliv.com,INDUSTRIAL,SI,,true
1892,AUTOMATAZ (EMPRESA UBICADA EN OTAY),664 484 67 93,LIC. ANA CARLA GONZÁLEZ,carla.gonzalez@automatas.com.mx,INDUSTRIA,N/A,,true
1893,"AUTOMATIZACIONES, SERVICIOS INDUSTRIALES Y DE CONTROL (ASIC)",(664) 381 12 61,ING. JESÚS MARTÍN ROJO TORRES,mrojo@asicmx.com,SERVICIO,SI,,true
1894,AUTOTRANSPORTE DE CARGA TRES GUERRAS S.A DE C.V.,(664) 969 43 60,HECTOR LOZANO ORTIZ,hectorl@tresguerras.com.mx,SERVICIO,SI,,true
1895,AVAILMED S.A DE C.V,977 27 43 / 664 451 88 74,ENRIQUE ALBERTO MEJIA GUERRERO,enrique.mejia@flex.com,INDUSTRIA,SI,,true
1896,"AVANTI DERMA, S.C.",687-4848,LIC. ARTURO CADIÑO VILCHIS,arturo@avantiderma.com,SERVICIO,SI,,true
1897,AVERY PRODUCTS S. DE R.L. DE C.V.,664-660-2100,LUIS FERNANDO CAZARES BURROLA / SUPERVISOR DE MANTENIMIENTO,fcazarez@avery.com / reclutamientotj@avery.com,INDUSTRIA,SI,,true
1898,AVIT SOLUCIONES S DE R.L DE C.V,664-686-18-00 Ext. 3401,ING. ENRIQUE CAMILO GUZMÁN CASTAÑOS / DIRECTOR DE SOLUCIONES DE TI.,enrique.guzman@avitsol.com,INDUSTRIA,SI,,true
1899,AYCOR,664-647-39-54 / 624-3882,ING. KALELL CANOBBIO,direccion@aycor.com.mx,INDUSTRIA,N/A,,true
1900,"BAJA TESTING LAB, S. DE R.L. DE C.V.",664 607 25 09,ANDREA MALENA JUAREZ ESPERO/ ING. ANGELICA PASCUAL,malena.juarez@bajatestinglab.com / angelica.pascual@bajatestinglab.com,INDUSTRIAL,SI,,true
1901,"BANCO DE ALIMENTOS DE TIJUANA, A.C.",664-629-27-00,LIC. TANIA CÓRDOVA GUTIERREZ / GERENTE DE RECURSOS HUMANOS,recursoshumanos@banati.org,COMERCIO,SI,,true
1902,BAXTER,664.368.7922,CRISTIAN ANTONIO MARTINEZ / ALONSO AYALA,cristian_martinez@baxter.com alonso_ayala@baxter.com,INDUSTRIAL,N/A,,true
1903,BAZZ HOUSTON S. DE R.L. DE C.V.,(664) 629 15 24 Ext. 114,M.C. MA . DE LOS ÁNGELES MONTOYA MEZA,angeles.montoya@bazzhouston.com/zuylma.gullen@bazzhouston.com,COMERCIO,SI,,true
1904,BCB LOGISTICS S DE R.L DE C.V,(664) 647 59 42,LIC. ZULMA FRANCO MONTAÑO,zulma@bajaimport.com.mx,COMERCIO,SI,,true
1905,BENCHMARK ELECTRONICS TIJUANA S. DE R.L. DE C.V.,664 655 11 00 ext. 2508,VALERIA URIAS,valeria.urias@bench.com,INDUSTRIAL,SI,,true
1906,BIMBO S.A DE C.V,664-6-60-25-54,LIC. KARINA LÓPEZ,btillopenav@grupobimbo.com,INDUSTRIAL,N/A,,true
1907,BLING BLING S.A DE C.V.,(664) 622 30 84 Ext. 111,LC. JUAN MANUEL MALDONADO RANGEL/L.A.E. RAQUEL TORRES,jmaldonado@blingbling.com.mx/raquel.torres@blingbling.com.mx,COMERCIO,N/A,,true
1908,"BORDER ASSEMBLY, S. DE R.L DE C.V",664-647-54-08,MARTHA COTA,erika.garcia@unlimitedelectro.com/martha.cota@tecma.com / claudia.cruz@tecma.com,INDUSTRIAL,SI,,true
1909,BORDER AUTOMATION MANUFACTURING DE MEXICO S.A DE C.V.,(664) 647 54 08,LIC. ERIKA GARCÍA / COORDINADORA DE R.H Y ADUANAS,erika.garcia@unlimitedelectro.com,INDUSTRIAL,SI,,true
1910,BOSE CORPORATION S.A. DE C.V.,01-664-979-400,ING. MISAEL MARCÍAS CERON / SUPERVISOR DE PLANEACIÓN,misael.macias@bose.com,INDUSTRIAL,SI,,true
1911,BOX IN TIME S DE R.L DE C.V,664 839 07 00 EXT. 203 664 120 58 26,LIC. ESTHER ANGULO,administracion@boxintime.com,MANUFACTURA,N/A,,true
1912,BRADY SERVICIOS S DE R.L. DE C.V.,664-2361-49-00 Ext. 791142,ALEJANDRO BARRERA,alejandro_barrera@bradycorp.com,SERVICIOS,SI,,true
1913,BRG SPORTS MÉXICO S.A DE C.V.,(664) 134-10-46,LIC. ALBA NYDIA HERRERA (HR COORDINADOR) / LIC. CLAUDIA MACÍAS DUARTE / ALMA HERNÁNDEZ,anherrera@brgsports.com / cmacias@brgsports.com / arhernandez@brgsports.com,INDUSTRIAL,SI,,true
1914,BROAN BUILDING PRODUCTS MEXICO DE R.L DE C.V,665- 655 - 52- 00,ING. ESTEFANIA ORTÍZ / MARÍA LÓPEZ,evelyn.galvan@broan.com / maria.lopez@broan.com,INDUSTRIAL,SI,,true
1915,BUCHER INDUSTRIES CGLB S. DE R. L. DE C.V.,(664) 976 56 56 Ext. 202,KEYDI SÁNCHEZ / DANIELA PAOLA LÓPEZ LOZOYA,rec.humanos@bucherinc.com / sanchez.k@bucherinc.com/c.v@bucherinc.com,INDUSTRIAL,SI,,true
1916,CAL MIL DE MEXICO S. DE R.L DE C.V.,664-629-081/ 664 689 85 50,GUSTAVO SÁNCHEZ/YAZMIN VARGAS /ORQUIDEA LOZANO MORENO,tjcustoms@calmil.com/yvargas@camil.com / orquidea.californiabreadcompany@gmail.com,MAQUILADORA,SI,,true
1917,CALIFORNIA BREAD COMPANY S DE R.L DE C.V,(664) 607-2879,ORQUIDEA LOZANO MORENO/ELIZABETH ROBLES,orquidea.californiabreadcompany@gmail.com/rhcaliforniabreadco@gmail.com,MANUFACTURERA,SI,,true
1918,"CALIFORNIA LOGISTICS GROUP, OSJACA S. DE R. L. DE C.V.",(664) 623 27 21,LIC. MICHELLE RAMOS LÓPEZ (RECURSOS HUMANOS) / RIGOBERTO CORDERO MORENO,recursosh@californialg.com,SERVICIOS,SI,,true
1919,"CALINOR, S.A. DE C.V.",(01152664) 689-14-55 Ext. 105,JOSE ENRIQUE CALDERA A. / YLUANA MAGALLANES,jenriquecaldera@calinor.com.mx/ylianamagallanes@calinor.com.mx,COMERCIAL,SI,,true
1920,CAMEX LL S DE RL DE CV,969-42-00 ext 1018 1,LIC. ISABEL YOQUIHUI (ESP JR. DE CONTRATACIÓN),isabel.yoquihui@tkcamex.com,INDUSTRIAL,SI,,true
1921,CARL ZEISS VISION MANUFACTURA DE MÉXICO S DE R. L. DE C.V.,"(664) 134 08 00 Ext. 4224, 4056",LIC. GUADALUPE GONZALEZ,guadalupe.gonzalez@zeiss.com,INDUSTRIAL,SI,,true
1922,CENTRAL DETALLISTA S.A. DE C.V. CALIMAX,(664) 633-7900 Ext. 2338,FARAH ESPRIU / VIRIDIANA CASTELLÓN,farah.espriu@calimax.com.mx / viridiana.castellon@calimax.com.mx /dalia.gutierrez@calimax.com.mx,SERVICIO,SI,,true
1923,"CERVECERÍA CUAUHTEMOC MOCTEZUMA, S.A DE C.V.",665-654-9353/ 104-22-00,DANIELA VENEGAS GONZÁLEZ/PILAR MARIA ROSAS RODRIGUEZ,mendezvidana14@gmail.com,INDUSTRIAL,SI,,true
1924,"COAST METAL SUPPLY, S. DE R.L. DE C.V.","6,646,255,052",BLANCA SOSA,blancas@coastaluminum.com,INDUSTRIAL,SI,,true
1925,"COASTLINE DE MÉXICO, S.A. DE C.V",(664) 686-0510 Ext. 124,RECURSOS HUMANOS / ING. MARÍA DEL CARMEN ALTAMIRA LÓPEZ,reclutamiento@coastlineintl.com / carmena@coastlineintl.com,INDUSTRIAL,SI,,true
1926,CO PRODUCTION INTERNATIONAL,664-450-05-10,LIC. RAUL YAIR GERMAN ACOSTA,raul.german@co-production.net,INDUSTRIAL,SI,,true
1927,"COORDINADORA DE SERVICIOS ADUANALES ATLAS, S.C",(664) 440 61 07 / 664 542 76 04,LIC. ROBERTO CASTRO BOJÓRQUEZMARIA STEFANY DIAZ RUIZ,roberto.castro@agencia-atlas.com / maria.stefany.diaz.ruiz@uabc.com.mx,SERVICIOS,SI,,true
1928,"CRISSAIR DE MÉXICO, S.A. DE C.V",(664) 423 24 00,L.C.C KARLA ANAYA GUTIÉRREZ,kanaya@crissair.com,INDUSTRIAL,SI,,true
1929,"GOSSLER, S.C. MEMBER CROWE GLOBAL",664-686-31-91,LIC. PAULINA TORRES PERALTA,paulina.torres@crowe.mx,INDUSTRIA,SI,,true
1930,CUSTOM SENSORS AND TECHNOLOGIES TRANSPORTATION DE MEXICO S.A DE C.V,(664) 627 34 42,ING. FRANCISCO HUMBERTO CEDANO CARRILLO,francisco.cedano@sensata.com,SERVICIOS,SI,,true
1931,DART SERVICES BAJA S. R.L DE C.V.,(664) 969-7200,VIANEY PAOLA TERRAZAS // ALEJANDRO CASTRO,VianeyPaola.Terrazas@dart.biz/// Alejandra.Castro@dart.biz,INDUSTRIAL,SI,,true
1932,DELPHI CONNECTION SYSTEMS TIJUANA S.A. DE C.V.,(664) 622-6100 Ext. 6174,"SONIA AGUILAR /ERIKA REYNOSO GONZALEZ, VICTOR CAMACHO","erica.reynoso-gonzalez@aptiv.com, victor.camacho-hidalgo@aptiv.com",INDUSTRIA,SI,,true
1933,DESICCARE MÉXICO S. DE R. L. DE C.V.,625 41 38 / 664 625 4279,LIC. KARLA JACQUES LEYVA/ LIC. LETICIA MARTINEZ / ING. LEANDRO ABEL SÁNCHEZ GARCÍA,reclutamiento@tecma.com / m@desiccare.com,ALIMENTICIO,SI,,true
1934,"DESPACHO FUENTES Y CIA, S.C.",(664) 622-4920 Ext. 2,STHEPHANIE ESQUIVEL,stephanie@despachofuentes.com,MANUFACTURA,SI,,true
1935,DESPACHO GARCÍA GARCÍA Y CIA . S.C,664-684-79-60,SARA CAMPOS ZAPATA,cpgarcia_garcia@hotmail.com,SERVICIO,SI,,true
1936,DESPACHO GONZALEZ Y ASOCIADOS,629 59 37,L.C.P. JUSTO LUIS GONZÁLEZ RAYMUNDO,depachognz99@outlook.com,SERVICIO,SI,,true
1937,"DEVICOR MEDICAL PRODUCTS DE MÉXICO, S. DE R. L. DE C.V. (MAMMOTOME)",973 64 04 Ext. 5215,LIC. ISABEL SÁNCHEZ (HUMAN RESOURCES GENERALIST) / JORGE AGUILERA LÓPEZ,isabel. sanchez@mammotome.com,MANUFACTURA,SI,,true
1938,"DIALIGHT DE MÉXICO, S. DE R. L. DE C.V.",(664) 354 77 28,LIC. ROBERTO BENETT / LIC. MAGDALENA SOLORZANO,rbenett@dialight.com / msolorzano@dialight.com / emayoral@dialight.com / psandoval@dialight.com,INDUSTRIAL,SI,,true
1939,"DIAMOND ELECTRONICS, S.A. DE C. V.","Teléfono (664)-660-64-53, Extensión-211 / 664 969 96 23",DIANA MARTÍNEZ - ATRACCIÓN DE TALENTO,reclutamiento@diamond-electronics.com,INDUSTRIAL,SI,,true
1940,DIRECCIÓN DE AUDITORÍA DE COMERCIO EXTERIOR,624-20-00 Ext. 22,LIC. KARLA BLANCO GARCÍA,kblanco@baja.gob.mx,GOBIERNO,SI,,true
1941,"EATON INDUSTRIES, S. DE R. L. DE C.V.",(664) 978 17 34,ING. ELIZABETH TORRES GUTIÉRREZ,joselherra@eaton.com,INDUSTRIAL,SI,,true
1942,ESSILOR TIJUANA OPTICA S. DE R.L. DE C.V.,(664) 374 63 45,ING. GABRIELA ESTRADA CÁRDENAS / MARTHA DUEÑAS BELTRÁN / ALICIA CASTRO MARTÍNEZ,gestrada@essilorusa.com / rhtijuana@essilorusa.com / prheto@essilorusa.com,INDUSTRIAL,SI,,true
1943,ESTERLINE MEXICO S DE R.L CGC10,Tel. + 52 664 625 9144 Ext. 5147,ORLANDO GONZÁLEZ - RH GENERALIST / LILIANA AVILA,orlando.gonzalez@esterline.com / liliana.avila@esterline.com / gardenia.sotelo@esterline.com,INDUSTRIAL,SI,,true
1944,FEMSA S. DE R. L. DE C.V.,(664) 978-2008,ING. ESTEBAN BONILLA GARCIA / EDITH SÁNCHEZ,ebonilla@femsafab.com / reclutamiento@femsafab.com / necastillo@femsafab.com,MANUFACTURERA,SI,,true
1945,FOXCONN BAJA CALIFORNIA S.A DE C.V.,(664) 627 72 00 Ext.7350,EULICE HUERTA (ADQUISICIÓN DE TALENTO) /ING. CLAUDIA ADRIANA BRITO AGUILERA,fbc-adquisiciondetalento@foxconn.com,ELECTRONICA,SI,,true
1946,G LUZ DE MEXICO S.A DE C.V.,(664) 134 66 25 / (664) 333 58 24,ING. OSCAR HERNÁNDEZ AMBRIZ,oscarh@g-luz.com,INDUSTRIAL,SI,,true
1947,GAS SILZA S.A. DE C.V.,664-406-95-84 / 664-595 20 02,ARTURO GOMEZ BONIFAZ / LIZETH SANTIAGO - COORDINADORA DE RECURSOS HUMANOS / MARCO ANTONIO RODRIGUEZ,rh.baja@tomza.com / agomez.b@tomza.com / reclutamientobc@gassilza.com,SERVICIO,SI,,true
1948,"G-GLOBAL, S. DE R.L",(664) 134 03 02 Ext. 127,JOEL GÓMEZ / LIC. IRVING LEONARDO WOO REYNOSO,talento@g-global.com.mx,AGENCIA ADUANAL / SERVICIO,SI,,true
1949,GOODBABY INTERNACIONAL HOLDINFS LIMITED (EVENFLO),(664) 689-0480 Ext. 7144,LIC. GLORIA RAMIREZ,gloria.ramirez@goodbabyint.com,MAQUILADORA,SI,,true
1950,"GOODRIDGE DE MEXICO, S DE R.L DE C.V",(664) 660-8337 Ext. 12,EUGENIO ENRRIQUE TORRES ZAPIEN / ALICIA DUARTE,alicia.duarte@goodridge.com,MAQUILADORA,SI,,true
1951,GRAPHIC PACKAGING INTERNACIONAL SERVICIOS S DE RL DE CV,Office: 664 4786300 Ext 5004,LIC. AIMEE VALDEZ / LIC. FAVIOLA AMADOR,Aimee.Valdez@graphicpkg.com / faviola.amador@graphicpkg.com,INDUSTRIAL,SI,,true
1952,GRUPO COMMART S.A DE C.V.,664-623 26 24 Ext.1,MA. IRMA HERNÁNDEZ RICO,ihernadez@grupocommart.com.mx,SERVICIO,SI,,true
1953,GRUPO FARMACEUTICO DE TIJUANA S.A DE C.V.,(664) 123-3261,IDALIA JANETH DECENA TORRES / LAE. GERARDO CECILIO LUNA GONZALEZ,idecena@gft.mx / rgomez@gft.mx,SALUD,SI,,true
1954,GRUPO OPTIMA S.A DE C.V,900 95 00 Ext. 127,LIC. LIZBETH GODINEZ FIGUEROA,lgodinez@gpoptima.com,COMERCIAL,SI,,true
1955,GRUPO LALA,665-654-26-37,LIC. MARIO HÉCTOR GORIBAR PORTUGAL,mario.goribar@grupolala.com,COMERCIAL,N/A,,true
1956,HAEMONETICS MEXICO MANUFACTURING S DE R.L DE C.V,664-969-1559,"LIC. JESSICA A. CHÁVEZ P. (RECRUITER, RPO)",jessica.chavez@haemonetics.com,INDUSTRIA,SI,,true
1957,"HARMAN DE MÉXICO, S. DE R.L. DE C.V.",Phone Office MX: +52 664 423 1404 ext 1191404,LIC. BIANCA MARTINEZ / C.P. LETICIA MERINO LOPEZ,bianca.martinez@harman.com/ vacantes@harman.com / leticia.merino@harman,INDUSTRIAL,SI,,true
1958,HAZ DOBLE CLICK,664-318-50-62,ROLANDO FAJARDO,rolando@hazdobleclik.com,SERVICIOS,SI,,true
1959,HERRAMIENTAS ESTANDAR DE MEXICO S.A DE C.V.,6646072522 Ext. 1008,ARELY ESPINOZA / JEFE DE RECURSOS HUMANOS,hrpayroll@lewistools.com,INDUTRIAL,N/A,,true
1960,"HISENSE ELECTRONICA MÉXICO, S.A. DE C.V",(661) 613-5510 Ext. 5022,TOBERTO TADEO,roberto.tadeo@hisense.com,INDUSTRIAL,SI,,true
1961,"HITACHI CONSUMER PRODUCTS DE MEXICO, S.A. DE C.V",(664) 623-3111/623,LIC. CESAR FRANCO,cesar.franco@hhea.hitachi.com,MAQUILADORA (EXPORT),SI,,true
1962,"HONEYWELL SPERIAN HEARING PROTECTION DE MEXICO, S.A DE C.V.",901 32 13,LIC. LESLIE DELGADO,Leslie.delgadogutierrez@honeywell.com / leslie.delgado@prouniversitaria.org,INDUSTRIAL,SI,,true
1963,HYUNDAI DE MÉXICO S.A DE C.V,(664) 645-0130 Ext. 2231,LIC. OMAR OCAMPO / HECTOR CORRALES,omaro@hyundaitranslead.com / omaro@translead.com,MAQUILADORA (EXPORT),SI,,true
1964,"IMPRESIÓN PROMOCIÓNAL, S DE R.L DE C.V",608-15-60,EDUARDO DOMÍNGUEZ BARRETT,ventas@impresionpromocional.com / servicioalcliente@impresionpromocional.com,SERVICIO,SI,,true
1965,INSDUSTRIA QUÍMICA JOZEL,664 624 8494,RECLUTAMIENTO,contacto@quimicajozel.mx,INDUSTRIA,N/A,,true
1966,INDUSTRIAS HUNTER S DE R.L DE C.V,6643870322 / 903 13 26,CONNIE ALVARADO TOVAR / DULCE MALFAVON / ANA GABRIELA QUIÑONES CARDENAS,connie.alvarado@hunterindustries.com / dulce.malfavon@hunterindustries.com / ana.quinones@hunterindustries.com,INDUSTRIAL,SI,,true
1967,"INTEGRACIÓN ADUANAL, S.C.",(664) 624-3678 Ext. 108,LORENZO RUVALCABA PAREDES,administracion@integracionaduanal.com,SERVICIOS,SI,,true
1968,JACUZZI DE MÉXICO S. A. DE C.V,(664) 615 42 00,LILIANA VALDEZ (HUMAN RESOURCE ) / LIC. SONIA FLORES,Liliana.Valdez@jacuzzi.com / sonia.flores@jacuzzi.com / reclutamiento@jacuzzi.com,MAQUILADORA (ESPORT),SI,,true
1969,JAE TIJUANA S.A. DE C.V.,689 74 84 Ext. 666,LIC. KARLA VARGAS V / LIC. MARLENE ALYIRA ALVARADO CASTAÑON,kvargas@jaeoregon.com / malvarado@jaeoregon.com,MAQUILADORA (EXPORT),SI,,true
1970,KYOCERA MEXICANA S.A DE C.V.,664-682-0111 Ext. 4385,JORGE L. ROCHIN,Jorge.Rochin@kyocera.com / Mario.Vazquez@kyocera.com,INDUSTRIAL,SI,,true
1971,LABORATORIO AMBIENTAL SIGMA S. DE R. L. DE C.V.,(664) 647 52 08 / Ext. 15,DR. ENRIQUE GARCIA FLORES / KARLA GUADIANA,info@sigmalab.com.mx / guadianak@sigmalab.com.mx,SERVICIO,SI,,true
1972,LABORATORIOS SCANTIBODIES S.A DE C.V,(665) 655-5134 // ext. 6112,CRISTINA ANGUIANO (GERENTE DE RECURSOS HUMANOS) /// MICHELLE NAVARRO,cristina.anguiano@scantibodies.com///Michelle.Navarro@scantibodies.com/ reclutamiento@scantibodies.com,MAQUILADORA (EXPORT.),SI,,true
1973,LANDSBERG ORORA DE MÉXICO S.A DE C.V,(664) 623 81 00 Ext. 3206,SANDY GUTIÉRREZ (HUMAN RESOURCES) / DENISSE BARRETO,denisse.barreto@landsberg.com//sandy.gutierrez@landsberg.com / vacantes.mexico@ladsberg.com,MAQUILADORA (EXPORT),SI,,true
1974,"LEACH INTERNATIONAL MÉXICO, S DE R.L DE C.V",664-231-81-33,LIC. ADRIANA AYALA   (HR GENERALIST),adriana.ayala@leachcorp.com,INDUSTRIA,SI,,true
1975,"LOC-JACK, S.A DE C.V",664-623-17-77  Ext. 112,LIC. KARLA MOJARRO,coordinacion.do@loc-jack.com,SERVICIO,SI,,true
1976,LP BOND INVESTIGACIONES Y DESARROLLO DEL TERCER MILENIO S.A DE C.V,664-608-33-40,ING. SERGIO TELLEZ / LIC. MARCO ALFONSO LEPE CISNEROS,checotp@gmail.com / marco@imgrafeno.com  /   info@lpbond.com,COMERCIAL,SI,,true
1977,MACFA AUTOMATIZACIÓN,Oficina: 664-378-78-98 Cel: 664-308-22-12,ANTONIO CASTRO  (PROJECT TEAM LEADER),antonio@macfa.mx,INDUSTRIA,N/A,,true
1978,MAM DE LA FRONTERA S.A. DE C. V,01-664-681 14 00 Ext.6433,ING. SALOMON LÓPEZ LORENZO,slopez@tacna.net / bolsadetrabajo@tacna.net,INDUSTRIAL,SI,,true
1979,MANGUERAS Y CONECCIONES VILLA S.A DE C.V.,903  29  24,ING. ALEJANDRA GODOY NAVARRO,a_godoy@manguerasyconeccionesvilla.com,COMERCIO,SI,,true
1980,MANITOWOC TJ S DE R.L DE C.V,(664)  969  27  00  Ext. 2716 y 2717,LIC. MAURICIO GONZÁLEZ RAMOS,diana.alatorre@welbilt.com  / mauricio.gonzalez@welbilt.com,INDUSTRIAL,SI,,true
1981,"MEDIMEXICO, S. DE R.L. DE C.V.",(664)  391  15  00,ALEJANDRA RÁBAGO  /   ALEJANDRA TORRES,contrataciones@fmc-na.com   / alejandra.torres@fmc-na.com /    noe.fong@fmc-na.com,MAQUILADORA  (EXPORT),SI,,true
1982,"MEDTRONIC MÉXICO ,S DE R.L. DE C.V.",664-903 11  00,M.C  ANGEL IVAN MALDONADO SANDEZ  /  ING VICTOR MANUEL AGUIRRE ROSAS,angel.ivan.maldonado@medetronic.com     /           rs.htijuanaresumes@medtronic.com  /  dnieto@experis.mx      /  victor.m.aguirre@medtronic.com,INDUSTRIAL,SI,,true
1983,"MERIT STAMPING, S DE R.L DE C.V",(664) 607 27  86  Ext. 101,ING. ULISES ANGULO MORA///   JUAN JOSE ARIAS (QA Manager),J.Arias@MERITALUMINUM.COM /berenice.ojeda@meritstamping.com,INDUSTRIAL,SI,,true
1984,"MEXHON, S. DE R.L DE C.V.",925  84  84  Ext. 1586,ING. JOSÉ DE JESÚS CAMACHO GÓMEZ   / LESLIE DELGADO  /  PAOLA OLMOS ARROYO,josé.camacho@resideo.com   /   Leslie.delgadogutierrez@honeywell.com   /  Paola.OlmosArroyo@Honeywell.com,INDUSTRIAL,SI,,true
1985,MONTECITOS MANUFACTURING S DE R.L DE C.V.,(664)  518  02  25,ING. JOSE ALFREDO TORRES MONTOYA,atorres@montecitosmfg.com,MANUFACTURA,N/A,,true
1986,MORGAN POLYMER SEALS S DE R.L DE C.V,(664) 625-5835 Ext. 140,ADRIAN ELOY RÍOS   / ING. AUDIEL OLEGARIO LOPEZ VAZQUEZ,arios@morganpolymerseals.com   / audilopez@montecitosmfg.com,INDUSTRIAL,SI,,true
1987,MORZAN CORPORATIÓN S.A DE C.V.,664-689 07 70  Ext.106  Mexicali al +52 (686) 592 1000,JAVIER SANDOVAL     /     LIC. GLAFIRA ROMERO TRUJILLO / ESTANISLAO VIZCARRA  LARIOS,javier.sandoval@morzan.com     /          glafira.romero@morzan.com  /  estanislao.vizcarra@morza.com,SERVICIO,SI,,true
1988,NANKAI MEXICO S.A DE C.V,(664)  168  39  94,ING. JUAN JOSE MACHUCA    /  ING. ANGEL AGUIRRE ALMEIDA  / LIC. MIRIAM RAMIREZ,juanmachu@nket.net   /   angel@nket.net   /     miriam @nket.net,INDUSTRIAL,SI,,true
1989,NEXT  IT INOVATION S DE RL DE CV,664-622 76 50,IVONNE RODRIGUEZ R.  / ADALBERTO CISNEROS,mira@nextevelip.com   / adci@nextlevelip.com,SERVICIO,SI,,true
1990,"NIELSEN MÉXICO SERVICES, S. R. L. DE C.V.",(664)  689  38  24,EDGAR IVÁN SÁNCHEZ ÁLVARES,nielsencomunications@nielsen.com,SERVICIO,SI,,true
1991,NISHINIHON SHOKO S.A. DE C.V.,(664) 625-5670,MARI. ANGEL CASTAÑEDO CORNELEO   /  JANETH OROZCO HERNANDEZ,recursoshumanos@nishinihon.us,INDUSTRIAL,SI,,true
1992,NORT AMERICA PRODUCTION SHARING MÉXICO S.A DE C.V.,(664)  969  47  73,ISAÍ RUIZ   (Indirect Recruitment Assistant)  /  MELISSA QUIÑONEZ    /   GISELLE ALEJANDRA PATRON BENITEZ,isai.ruiz@napsmexico.com / melissa.quinonez@napsmexico.com / giselle.patron@napsmexico.com,SERVICIO,SI,,true
1993,NPA DE MÉXICO S DE R.L DE C.V,664-134-3353 Ext 3353 /   664-231-37-00,ING. YESENIA CORTEZ     /    ING. ISAAC GAMBOA  /   ING. JUAN RAMSES RIVAS MENDOZA,yesenia.cortez@nypro.com    /   isaac.gamboa@nypro.com  / ramses.rivas@nypro.com  / hr.talento@nypro.com,INDUSTRIAL,SI,,true
1994,"ODU MEXICO MANUFACTURING, S DE R.L DE C.V",(664) 617-6803,EDGAR AGUILAR  (SUPERVISOR DE RH),edgar.aguilar@tecma.com,INDUSTRIAL,SI,,true
1995,OSSUR MÉXICO S DE R.L DE C.V,(664) 231-6445,LIC. ALEJANDRO PIÑA,jorivera@ossur.com    /   talento@ossur.com,INDUSTRIAL,SI,,true
1996,PAGASA S.A DE C.V,Tel. 6086024,ANA GUILLERMINA RODRIGUEZ CALVO  /  CLAUDIA MUÑOZ,grodriguez@pagasa.com.mx   /    rechum@pagasa.com.mx,MANUFACTURERA,SI,,true
1997,PANASONIC AMPLIANCES REGRIGERATION SYSTEMS DE MÉXICO S.A DE C.V,Tel. (664) 623-33-09   Ext. 6155,LIC. NAYELI RODRIGUEZ GONZÁLEZ,nayeli.rodriguez@us.panasonic.com,INDUSTRIAL,SI,,true
1998,PANASONIC ECOLOGY SYSTEMS DE MÉXICO S.A DE C.V,(664) 647-4600 Ext. 2294,OSUNA BOGARIN OSCAR // CLAUDIA GUTIERREZ,Oscar.Osuna@us.panasonic.com     Claudia.Gutierrez@us.panasonic.com,INDUSTRIAL,SI,,true
1999,PETERSON TOOLS ENGINEERING (SANDRA ALICIA GOMEZ RUIZ),664-331-76-28,SANDRA ALICIA GOMEZ RUIZ,sgomez@petersontools.com.mx,INDUSTRIAL,SI,,true
2000,"PEUGEOT MÉXICO, S.A DE C.V.","6,646,073,146",KARINA SÁNCHEZ    /    ENRIQUE SÁNCHEZ SILVA,karina.sanchez@peugeottersa.com.mx   /    enrique.sanchez@peugeottersa.com,INDUSTRIAL,SI,,true
2001,PHILIPS LIGHTING ELECTRONICS MÉXICO SA DE CV,(664) 211 6336,CARMEN HEREDIA B.  / GABRIELA HERNÁNDEZ,carmen.heredia@signify.com,INDUSTRIAL,SI,,true
2002,"PLANTONICS MEXICO - PLAMEX, S.A. DE C.V.",(664)  647  48  00,ING. MARIO ALEJANDRO TIRADO MANZANO,armando.morales@poly.com,INDUSTRIAL,SI,,true
2003,PLASTICOS BAJACAL S.A DE C.V,(664)  375  86  52,ING. ALFREDO PÉREZ SOLÍS /  MARCELA CERON ALFEREZ,alfredo.perez@mainetti.com    /   maricela.ceron@mainetti.com,INDUSTRIAL,SI,,true
2004,PLUMA NACIONAL S.A DE C.V.,211  62  00 Ext. 6235,MELODY VÁZQUEZ  (TALENT ACQUISITION SUP),melody.vazquez@pens.com,INDUSTRIAL,SI,,true
2005,PLUS CONNECT,686-554-54-24,LIC. ROSY RAZO,rosyrazo@plusconnect.com.mx,SERVICIO,N/A,,true
2006,POSEY S DE R.L DE C.V,(664)  969  87  37  Ext. 7517,MÓNICA RAMÍREZ NAVARRO  / ANGELES DOMINGUEZ,monramirez@tidiproducts.com   / adominguez@tidiproducts.com,INDUSTRIA,SI,,true
2007,"POWER SONIC, S.A DE C.V",1643400 ext 389,SOLEDAD AMAYA  (RECURSOS HUMANOS)    /     LIC. MARIBEL BALDERAS,soledad.Amaya@enersys.com /   talento-mx@power-sonic.com,INDUSTRIAL,SI,,true
2008,PRIME WHEEL MÉXICO S DE R.L DE C.V,Mx (664) 134 2100 Ext. 2638,MARINA ELIZABTH  BERMÚDEZ GARCÍA  NETWORK AND SYSTEMS,mbermudez@primewheel.com,INDUSTRIAL,SI,,true
2009,"PROCESOS METALICOS CALIFORNIA, S.A DE C.V",(664) 134-2100 Ext. 2158,LIC. NUBIA CUEVAS CENICEROS,nubiac@ssp-inc.net,INDUSTRIAL,SI,,true
2010,PJ KOREA,N/A,ING. RAUL HERNANDEZ,pjraul191@gmail.com,INDUSTRIAL,N/A,,true
2011,BG CONSULTING,664-437-95-97,LIC. TANIA MORA       /       MARIO CORTES,tania.mora@bgc.com       /         mario.cortes@bgc.mx,SERVICIO,SI,,true
2012,PRODUCTO ELÉCTRICO DE TIJUANA S.A DE C.V,6879002  Ext. 5002,LIC. SARA J. GIL,sara.gil@grupopetsa.com,COMERCIO,SI,,true
2013,"PRODUCTOS DIAMOND, S.A. DE C.V.",(664) 686-8215,ING. LUIS TORRES SANTILLAN,luists@diamcers.com,SERVICIO,SI,,true
2014,R Y R SERVICIOS ADUANALES S. C.,(664) 607-0676 Ext. 117 / 102,EDNA CORONADO CARVAJAL / LIC. NUBIA ESPINOZA MORALES,edna.coronado@ryrservicios.com / contabilidad.tijuana@ryrservicios.com,SERVICIOS ADUANALES,SI,,true
2015,"RIVER MANUFACTURING INTERNATIONAL DE MÉXICO, S. DE R.L DE C.V",(664) 624-9495,DENISSE MEDINA,rhriver@mxrivermfg.com,MANUFACTUR,SI,,true
2016,RSI HOME PRODUCTS S DE RL DE CV,689  37  08  Ext. 6767,BOGAR CEDANO  /  IMEC OMAR ACOSTA BALDENEBRO,vacantesrsi@rsihomeproducts.com   /  obaldenebro@rsihomeproducts.com,COMERCIAL,SI,,true
2017,"RSI MÉXICO, S. DE R.L. DE C.V.",(664) 215-0679 Ext. 1151,"LIC. MARTHA GÓMEZ  /  ALEXIS LÓPEZ | Supervisor de Tráfico y Lógistica",marthag@rsimexico.com   /   trafico01tj@rsimexico.com,INDUSTRIAL,SI,,true
2018,RSM MEXICO BOGARIN S.C.,(664) 634-6562,ARACELI GARCÍA    /   ING. MAGDIEL HERNANDEZ NUÑEZ/ SUPERVISORA DEL DPTO. DE COMERCIO EXTERIOR,recepcion.tijuana@rsmmx.mx      /        magdiel.hernandez@rsmmx.mx,INDUSTRIAL,SI,,true
2019,REFACCIONES Y AUTOMATIZACIONES INDUSTRIALES,Oficina (664) 3833175,JOSÉ MANUEL ORTEGA DELGADILLO,a.refaccionesindustriales@gmail.com,INDUSTRIAL,N/A,,true
2020,SAFRAN,"T +52 (664) 626 05 55, Ext. 6343",CANDY CANALES (HUMAN RESOURCES),Candy.canales@safrangroup.com,INDUSTRIAL,SI,,true
2021,SAFARILAND INTERNACIONAL S.A.DE C.V.,(664) 134-4700 Ext. 165073,ING. JECSAN NAJERA GARCIA / INGENIERO DE MANUFACTURA,jecsan.najera@safariland.com/reclutamiento@safariland.com,MAQUILADORA (EXPORT),SI,,true
2022,"SAINT-GOBAIN MERIT, S. DE R.L. DE C.V.",664-625-41-68,LIC. EN PSIC. NOHEMA PARRA (Analista JR. Recursos Humanos),nohema.parra@saint-gobain.com,MAQUILADORA (EXPORT),SI,,true
2023,SAMSUNG MEXICANA S.A DE C.V,(664)  903  17  66,JACQUELINE ESPINOZA,ja.espinoza@samsung.com,INDUSTRIAL,SI,,true
2024,"SAMSUNG SDI, MEXICO S.A DE C.V",(664) 627-6231,LIC. ADRIANA CARDENAS PÉREZ   /  LIC. JUNESEOB YOON,adriana.cp@samsung.com   / junes.yoon@samsung.com,INDUSTRIAL,SI,,true
2025,"SANKO ELECTRÓNICA MÉXICO, S.A. DE C.V.",(664)  231  74  20  Ext.  105,ING. JESÚS JAVIER TRUJILLO VASQUEZ    /   ING. JESÚS ALEJANDRO OLIVAS PACHECO  (ING),javier.trujillo@berry.net    /  atencion@sankoelec.com,INDUSTRIAL,SI,,true
2026,SCHLAGE DE MEXICO S.A DE C.V,664-635-51-43,LIC. OSCAR BLANCO,oscar.blanco@allegion.com,INDUSTRIAL,SI,,true
2027,SEAL FOR LIFE INDUSTRIES MÉXICO S DE R.L DE C.V (BERRY GLOBAL),(664) 647-4300,SOCORRO GÓMEZ JARAMILLO,Socorro.Gomez@sealforlife.com ////socorrogomez@berryglobal.com,INDUSTRIAL,SI,,true
2028,SEI AUTOMATION S. DE R.L. DE C.V.,(664)  625  67  00,ING. ADOLFO VENEGAS PERAZA,adolfo.venegas@seiautomation.net,INDUSTRIAL,SI,,true
2029,SEQUOIA MARKETING / HUMBERTO AMADOR PINEDA,(664)  191  89  52,ING. ROLANDO FAJARDO HERRERA,ventas@sequoiamarketing.mx,SERVICIO,SI,,true
2030,"SERENA Y ASOCIADOS, S.C",(664) 647-2228 Ext. 118,LIC. MIREILE SERENA / LIC. BRIAN OMAR ANDRADE FAVELA,mireilleserena@aaserana.com  / revision@aaserana.com,SERVICIO,SI,,true
2031,SERVINDTEC S. de R. L. de C.V.,(664)  980  81  12,TSU. CÉSAR NOEL MACÍAS SÁNCHEZ,alondra.hernandez@servindtec.com,INDUSTRIAL,SI,,true
2032,SIGMA INK S DE R.L DE C.V,635-28-94,MDF.STHEFANY PÉREZ,shipping@sigmainks.com,INDUSTRIA,N/A,,true
2033,"SILGAN DISPENSING SYSTEM OPERADORA, S. DE R. L. C.V.",(664)  626  83  05  Ext.  102,MÓNICA VÁZQUEZ  (HR)  /    JOSE ADRIAN ROBLES,monica.diaz@silgandispensing.com    / joseadrian.robles@silgandispensing.com,MAQUILADORA (EXPORT),SI,,true
2034,SISTEMAS MÉDICOS ALARIS S.A DE C.V,627  82  01,LIC. CYNTIA CEJA   /      ING. JOSE VALENTIN TORRES NEBUAY   /    ZULEMA GARCÍA /,sistemasmedicosalaris@bd.com  /    jose.torres1@bd.com    / reclutamiento.personal@carefusion.com,INDUSTRIAL,SI,,true
2035,SMITHS CONEXIÓN DE MEXICO S.A. DE C.V.,211  07  54   y  211  07  50,RAUL YAIR GERMAN ACOSTA,raul.german@co-production.net,MAQUILADORA,SI,,true
2036,SMK ELECTRONICA S.A DE C.V.,(664) 625-9680 Ext. 2201,LIC. ARELI RIESTRA    /      LIC. CLAUDIA VALERIA CASTRO ACEVES,ariestra@smkusa.com       /         ccastro@smkusa.com,INDUSTRIAL,SI,,true
2037,"SPORTE INDUSTRIAL Y COMERCIAL, S. DE R. L.",(664)  381  75  26,ALFREDO RAMÍREZ REYES/  DALIA ABIGAIL PRADO LOZANO    /  ING. JORGE ADRIÁN FÉLIX LÓPEZ,ateran@gmail.com   / dprado@maisind.com   /  ateran@maisind.com,MAQUILADORA,SI,,true
2038,"SPRINGS WINDOW FASHIONS DE TIJUANA, S. DE R.L. DE C.V.",(664) 684-4085 Ext. 8045,LIC. LENNIA MORA,lennia.mora@springswindowfashions.com,MAQUILADORA,SI,,true
2039,"ST. JOHN DE MÉXICO, S.A. DE C.V.",(664) 478-9232,"LIC. SOLEDAD MENDOZA   /  LIC. RUBÉN VILLARREAL,",soledad.mendoza@sjk.com,INDUSTRIA,SI,,true
2040,"STRYKER MANUFACTURING, S. DE R.L. DE C.V.",664-423-2009,C.P. GEMA IRELDA RODRÍGUEZ HENRIQUEZ (GERENTE DE CONTABLIDAD)   / ING. RAFAEL ANDRES BERRELLEZA DIAZ  (INGENIERÍA),gema.rodriguez@stryker.com   /  rafael.berrelleza@stryker.com    /   monica.villanueva@stryker.com,MANUFACTURA,SI,,true
2041,SUMMIT DE BAJA CALIFORNIA S.A DE C.V.,902  66  92  Ext. 3105/3132,ING. VÍCTOR HUGO BALLESTEROS ALVAREZ/  LIC. JESUS GUILLERMO RIVAS CARDENAS (LCG)/     RAUL ROSALES BALTAZAR       (INGENIERÍA),agastelum@geckoal.com    /   jrivas@geckoal.com   /     raul.rosales@rb.com,INDUSTRIAL,SI,,true
2042,SUNBANK DE MEXICO S DE R.L DE C.V,(664) 625 9144,ORLANDO GONZALEZ    / MIGUEL IZQUIERDO CUSTODIO,orlando.gonzalez@souriau.com    /  mizquierdo@souriau.com,INDUSTRIAL,SI,,true
2043,"SUPER PACKING TKT, S.A DE C.V",(665) 655-5223,LIC. FABIOLA TORRES,fabiola@superpackingtkt.com,MAQUILADORA,SI,,true
2044,TAPICERIAS PACIFICO S.A DE C.V   (Watkins Wellness),(665) 655-1632,ING. BALDO MEDINA RAMÍREZ  /  MARIELA RIVERA G.,"miriam.lizarraga@watkinsmfg,com   /  mariela.rivera@watkinsmfg.com      /    reclutamiento@watkinsmfg.com",INDUSTRIAL,SI,,true
2045,TECNO ALL DE MEXICO S.A DE C.V.,(664)682-1244 y (664)973-6663,ING. NOEMI LIZARRAGA CARRASCO,tecnoall_tj1@hotmail.com / noemi@tecnoall.com,COMERCIO,SI,,true
2046,THERMO FISHER SCIENTIFIC (LABOMEX MBP S DE RL DE CV),(664)637-9412 Ext.3523179,MA. FERNANDA FLORES (HR Training Specialist)       /   ADRIAN LEMUS DE LA CRUZ,maria.florespalencia@thermofisher.com,COMERCIAL,SI,,true
2047,TOOLS AND METALS SUPPLY DE MEXICO S. DE R.L. DE C.V.,664-627-0474,ING. ADRIAN LEON NAPOLES/ DIRECTOR DE EMPRESA,administracion@toolsandmetals.com,COMERCIO,SI,,true
2048,"TPE DE MÉXICO, S DE R.L DE C.V",(665) 521-1012,SAÚL MENDEZ HERNÁNDEZ,frida.montes@mtecorp.com,MAQUILADORA,SI,,true
2049,TRACKSO S.A. DE C.V.,664-280-07-52,ING. FRANCELIZ CABRERA GARCÍA/ ENCARGADA DEL AREA DE DESARROLLO Y COMUNICACIONES,contacto@smartcenter.com.mx   /  admin.clientes@trackso.com,SERVICIOS,SI,,true
2050,TRANSPORTE CASTORES DE BAJA CALIFORNIA S.A. DE C.V.,477-528-36-34,EDUARDO ANTONIO GONZALEZ MARIN  ( COORDINADOR DE ALMACEN  )     /      LIC. LILIANA CECEÑA,coorddistribucion_tij@_castores.com.mx     /       liliana_cecena@castores.com.mx,SERVICIOS,SI,,true
2051,TRATADOS INTEGRALES S.A DE C.V.    (INTRADE SYSTEM),(664)  104  43  47,LIC. JOSÉ MARCOS GARCÍA   /  ING. ROSEMARY HORTA SAGRERO,marco.garcia@intradesystem.com    /    alan.martinez@intradesystem.com  / mgalindo@intradesystem.com     /  rsagrero@intradesystem.com,MAQUILADORA (EXPORTAR),SI,,true
2052,TRELLEBORG SEALING SOLUTIONS MEXICO S.A DE C.V,Tel: +52 (664) 645 0353  x 31236,ELODIA CASTILLO   /     SONIA OROZCO    / FABIOLA SANTOYO,elodia.castillo@trelleborg.com   /    sonia.orozco@trelleborg.com,INDUSTRIAL,SI,,true
2053,TRUE BLUE MANUFACTURING S DE R.L DE C.V   (SAMPLING INTERNATIONAL)},664-607-42-08  Ext. 154,"LIC. MARLENNE GUTIERREZ (HUMAN RESOURCES MANAGER, SI)",marlenne.gutierrez@samplinginternational.com,MAQUILADORA,SI,,true
2054,TURBO TECNOLOGIA DE REPARACIONES S.A DE C.V,647-41-00,EDWIN BUCHANAN,t3_reclutamiento@solarturbines.com,INDUSTRIAL,SI,,true
2055,TYP REFRIGERACION S.A. DE C.V.,(664)  607  56  78,MARCOS ANTONIO ROJAS REYES  /  HUGO YOBANI ANGULO LINDORO,mrojas@typrefrigeracion.com.mx        /       hangulo@typrefrigeracion.com.mx,INDUSTRIAL,SI,,true
2056,URBANIZADO Y PAVIMENTACIÓN DE BAJA CALIFORNIA S.A DE C.V,664 297 85 57,LIC. MARÍA GARCÍA   /    BERENICE ESTRADA,mara.garcia@urbanizadobc.com  / administracion@urbanizadobc.com,SERVICIO,N/A,,true
2057,UNITECH FOAM S.A DE C.V,(664)  143  04  84,RUBEN MENCIAS,ruben.men@unitechfoam.com,INDUSTRIAL,SI,,true
2058,test,test,test,test,Industrial,Si,test,true
2078,test2,test,test,test,Industrial,Si,test,true
2079,test3,test,test,test,Industrial,Si,test,true
2080,test4,test,test,test,Industrial,Si,test,true
2081,test5,test,test,test,Industrial,Si,test,true
2082,test6,test,test,test,Industrial,Si,test,true
2083,test7,test,test,test,Industrial,Si,test,true
2084,test8,test,test,test,Industrial,Si,,false
2085,test9,test,test,test,Industrial,Si,test,false
2086,test1,test,test,test,Industrial,Si,test,true
2087,test10,test,test,test,Industrial,Si,test,true
2088,test11,test,test,test,Industrial,Si,test,true
2089,test12,test,test,test,Industrial,Si,test,true
2090,test13,test,test,test,Industrial,Si,test,true
2091,test14,test,test,test,Industrial,Si,test,true
2092,test15,test,test,test,Industrial,Si,test,true
2093,tes15,test,test,test,Industrial,Si,test,true
2094,tes16,test,test,test,Industrial,Si,test,true
2095,test16,test,test,test,Industrial,Si,test,true
2096,test17,test,test,test,Industrial,Si,test,true
2097,test18,test,test,test,Industrial,Si,test,true
2098,test19,test,test,test,Industrial,Si,test,true
2099,test20,test,test,test,Industrial,Si,test,true
2100,test21,test,test,test,Industrial,Si,test,true
2101,test22,test,test,test,Industrial,Si,test,true
2102,test23,test,test,test,Industrial,Si,test,true
2103,test24,test,test,test,Industrial,Si,test,true
2104,test25,test,test,test,Industrial,Si,test,true
2105,test26,test,test,test,Industrial,Si,test,true
2106,test27,test,test,test,Industrial,Si,test,true
2107,test28,test,test,test,Industrial,Si,test,true
2108,test30,test,test,test,Industrial,Si,test,true
2109,test31,test,test,test,Industrial,Si,test,true
2110,test32,test,test,test,Industrial,Si,test,true
2111,test33,test,test,test,Industrial,Si,test,true
2112,test34,test,test,test,Industrial,Si,test,true
2113,test35,test,test,test,Industrial,Si,test,true
2114,test36,test,test,test,Industrial,Si,test,true
2115,test37,test,test,test,Industrial,Si,test,true
2116,test38,test,test,test,Industrial,Si,test,true
2117,test39,test,test,test,Industrial,Si,test,true
2118,test40,test,test,test,Industrial,Si,test,true
2119,test41,test,test,test,Industrial,Si,test,true
2120,test42,test,test,test,Industrial,Si,test,true
2121,test43,test,test,test,Industrial,Si,test,true
2122,test45,test,test,test,Industrial,No,test,true