=================================================================
Clase: initalSetup
Function: createRoles
=================================================================
Bussiness logic: Crea los roles si no existen en base de datos por primera vez
Bussiness logic: connect mongoose database
Clase: database
Function: mongoose.connect
=================================================================
Function: index
🟢 Tue Mar 02 2021 17:36:15 GMT-0800 (Pacific Standard Time) Succes: Server listen on port 2000
Clase: index
Bussiness logic: listen on port from server
🟢 Tue Mar 02 2021 17:36:15 GMT-0800 (Pacific Standard Time) Succes: Databse succesfull conected [object Object]
=================================================================
Clase: initalSetup
Function: createRoles
=================================================================
Function: mongoose.connect
Bussiness logic: Crea los roles si no existen en base de datos por primera vez
Bussiness logic: connect mongoose database
Clase: database
=================================================================
Clase: index
Function: index
Bussiness logic: listen on port from server
🟢 Tue Mar 02 2021 17:39:16 GMT-0800 (Pacific Standard Time) Succes: Server listen on port 2000
🟢 Tue Mar 02 2021 17:39:16 GMT-0800 (Pacific Standard Time) Succes: Databse succesfull conected [object Object]
=================================================================
Clase: initalSetup
Function: createRoles
=================================================================
Bussiness logic: Crea los roles si no existen en base de datos por primera vez
Clase: database
Bussiness logic: connect mongoose database
Function: mongoose.connect
=================================================================
Function: index
Clase: index
Bussiness logic: listen on port from server
🟢 Tue Mar 02 2021 17:42:39 GMT-0800 (Pacific Standard Time) Succes: Server listen on port 2000
🟢 Tue Mar 02 2021 17:42:39 GMT-0800 (Pacific Standard Time) Succes: Databse succesfull conected [object Object]
=================================================================
Clase: initalSetup
Function: createRoles
=================================================================
Bussiness logic: Crea los roles si no existen en base de datos por primera vez
Clase: database
Function: mongoose.connect
Bussiness logic: connect mongoose database
=================================================================
Clase: index
Function: index
Bussiness logic: listen on port from server
🟢 Tue Mar 02 2021 17:42:50 GMT-0800 (Pacific Standard Time) Succes: Server listen on port 2000
🟢 Tue Mar 02 2021 17:42:50 GMT-0800 (Pacific Standard Time) Succes: Databse succesfull conected [object Object]
=================================================================
Clase: initalSetup
Function: createRoles
Bussiness logic: Crea los roles si no existen en base de datos por primera vez
Function: mongoose.connect
=================================================================
Clase: database
Bussiness logic: connect mongoose database
=================================================================
Function: index
Clase: index
Bussiness logic: listen on port from server
🟢 Tue Mar 02 2021 23:40:31 GMT-0800 (Pacific Standard Time) Succes: Server listen on port 2000
🟢 Tue Mar 02 2021 23:40:31 GMT-0800 (Pacific Standard Time) Succes: Databse succesfull conected [object Object]
