=================================================================
Clase: initalSetup
Clase: database
Function: mongoose.connect
Bussiness logic: connect mongoose database
Function: createRoles
Bussiness logic: Crea los roles si no existen en base de datos por primera vez
=================================================================
=================================================================
Clase: index
Bussiness logic: listen on port from server
🟢 Sun Feb 21 2021 13:11:51 GMT-0800 (Pacific Standard Time) Succes: Server listen on port 2000
Function: index
🟢 Sun Feb 21 2021 13:11:51 GMT-0800 (Pacific Standard Time) Succes: Databse succesfull conected [object Object]
🟢 Sun Feb 21 2021 13:11:51 GMT-0800 (Pacific Standard Time) Succes: Se crearon los roles exitosamente resp: { _id: 6032cc9782106511b2ea1e46, name: 'user' },{ _id: 6032cc9782106511b2ea1e47, name: 'admin' },{ _id: 6032cc9782106511b2ea1e48, name: 'moderator' }
=================================================================
🔵 Sun Feb 21 2021 13:15:06 GMT-0800 (Pacific Standard Time) Info: Bitacorizando data de entrada...
Clase: signin 
Bussiness logic: Obtiene data para iniciar sesion
Function: signin
=================================================================
=================================================================
Clase: database
Function: mongoose.connect
Bussiness logic: connect mongoose database
Function: createRoles
Bussiness logic: Crea los roles si no existen en base de datos por primera vez
Clase: initalSetup
=================================================================
Bussiness logic: listen on port from server
🟢 Sun Feb 21 2021 13:18:04 GMT-0800 (Pacific Standard Time) Succes: Server listen on port 2000
Clase: index
Function: index
🟢 Sun Feb 21 2021 13:18:04 GMT-0800 (Pacific Standard Time) Succes: Databse succesfull conected [object Object]
=================================================================
Clase: signin 
Function: signin
Bussiness logic: Obtiene data para iniciar sesion
🔵 Sun Feb 21 2021 13:18:13 GMT-0800 (Pacific Standard Time) Info: Bitacorizando data de entrada...
=================================================================
=================================================================
Clase: database
Function: mongoose.connect
Bussiness logic: connect mongoose database
Function: createRoles
Bussiness logic: Crea los roles si no existen en base de datos por primera vez
Clase: initalSetup
=================================================================
Clase: index
Function: index
Bussiness logic: listen on port from server
🟢 Sun Feb 21 2021 13:19:29 GMT-0800 (Pacific Standard Time) Succes: Server listen on port 2000
🟢 Sun Feb 21 2021 13:19:29 GMT-0800 (Pacific Standard Time) Succes: Databse succesfull conected [object Object]
=================================================================
Clase: signin 
Function: signin
Bussiness logic: Obtiene data para iniciar sesion
🔵 Sun Feb 21 2021 13:19:38 GMT-0800 (Pacific Standard Time) Info: Bitacorizando data de entrada...
=================================================================
=================================================================
Clase: database
Function: createRoles
Bussiness logic: connect mongoose database
Function: mongoose.connect
Bussiness logic: Crea los roles si no existen en base de datos por primera vez
Clase: initalSetup
=================================================================
Bussiness logic: listen on port from server
Clase: index
🟢 Sun Feb 21 2021 13:19:52 GMT-0800 (Pacific Standard Time) Succes: Server listen on port 2000
Function: index
🟢 Sun Feb 21 2021 13:19:52 GMT-0800 (Pacific Standard Time) Succes: Databse succesfull conected [object Object]
=================================================================
Clase: signin 
Function: signin
Bussiness logic: Obtiene data para iniciar sesion
🔵 Sun Feb 21 2021 13:20:01 GMT-0800 (Pacific Standard Time) Info: Bitacorizando data de entrada...
=================================================================
🔵 Sun Feb 21 2021 13:20:59 GMT-0800 (Pacific Standard Time) Info: Bitacorizando data de entrada...
Function: signin
Bussiness logic: Obtiene data para iniciar sesion
Clase: signin 
=================================================================
Bussiness logic: Obtiene data para iniciar sesion
Function: signin
🔵 Sun Feb 21 2021 13:22:01 GMT-0800 (Pacific Standard Time) Info: Bitacorizando data de entrada...
Clase: signin 
=================================================================
Function: createRoles
=================================================================
Function: mongoose.connect
Bussiness logic: connect mongoose database
Clase: database
Bussiness logic: Crea los roles si no existen en base de datos por primera vez
Clase: initalSetup
=================================================================
🟢 Sun Feb 21 2021 13:22:20 GMT-0800 (Pacific Standard Time) Succes: Server listen on port 2000
Clase: index
Bussiness logic: listen on port from server
Function: index
🟢 Sun Feb 21 2021 13:22:20 GMT-0800 (Pacific Standard Time) Succes: Databse succesfull conected [object Object]
=================================================================
Clase: initalSetup
Function: createRoles
Bussiness logic: Crea los roles si no existen en base de datos por primera vez
=================================================================
Clase: database
Function: mongoose.connect
Bussiness logic: connect mongoose database
Clase: index
=================================================================
Function: index
Bussiness logic: listen on port from server
🟢 Sun Feb 21 2021 13:25:03 GMT-0800 (Pacific Standard Time) Succes: Server listen on port 2000
🟢 Sun Feb 21 2021 13:25:03 GMT-0800 (Pacific Standard Time) Succes: Databse succesfull conected [object Object]
=================================================================
Bussiness logic: Crea los roles si no existen en base de datos por primera vez
Clase: database
Function: mongoose.connect
Bussiness logic: connect mongoose database
Function: createRoles
Clase: initalSetup
=================================================================
=================================================================
🟢 Sun Feb 21 2021 13:25:56 GMT-0800 (Pacific Standard Time) Succes: Server listen on port 2000
Function: index
Bussiness logic: listen on port from server
Clase: index
🟢 Sun Feb 21 2021 13:25:56 GMT-0800 (Pacific Standard Time) Succes: Databse succesfull conected [object Object]
=================================================================
Clase: initalSetup
Bussiness logic: Crea los roles si no existen en base de datos por primera vez
Clase: database
Bussiness logic: connect mongoose database
Function: createRoles
Function: mongoose.connect
=================================================================
=================================================================
🟢 Sun Feb 21 2021 13:29:21 GMT-0800 (Pacific Standard Time) Succes: Server listen on port 2000
Function: index
Bussiness logic: listen on port from server
Clase: index
🟢 Sun Feb 21 2021 13:29:21 GMT-0800 (Pacific Standard Time) Succes: Databse succesfull conected [object Object]
=================================================================
Clase: initalSetup
Bussiness logic: Crea los roles si no existen en base de datos por primera vez
Clase: database
=================================================================
Function: createRoles
Function: mongoose.connect
Bussiness logic: connect mongoose database
=================================================================
Function: index
Bussiness logic: listen on port from server
🟢 Sun Feb 21 2021 13:29:37 GMT-0800 (Pacific Standard Time) Succes: Server listen on port 2000
Clase: index
🟢 Sun Feb 21 2021 13:29:37 GMT-0800 (Pacific Standard Time) Succes: Databse succesfull conected [object Object]
=================================================================
Bussiness logic: Crea los roles si no existen en base de datos por primera vez
Clase: database
Function: mongoose.connect
Bussiness logic: connect mongoose database
Function: createRoles
Clase: initalSetup
=================================================================
=================================================================
Clase: index
Function: index
Bussiness logic: listen on port from server
🟢 Sun Feb 21 2021 13:29:43 GMT-0800 (Pacific Standard Time) Succes: Server listen on port 2000
🟢 Sun Feb 21 2021 13:29:43 GMT-0800 (Pacific Standard Time) Succes: Databse succesfull conected [object Object]
=================================================================
Clase: initalSetup
Function: createRoles
Bussiness logic: Crea los roles si no existen en base de datos por primera vez
=================================================================
Clase: database
Bussiness logic: connect mongoose database
Function: mongoose.connect
=================================================================
Function: index
Clase: index
Bussiness logic: listen on port from server
🟢 Sun Feb 21 2021 13:30:08 GMT-0800 (Pacific Standard Time) Succes: Server listen on port 2000
🟢 Sun Feb 21 2021 13:30:08 GMT-0800 (Pacific Standard Time) Succes: Databse succesfull conected [object Object]
=================================================================
Clase: initalSetup
=================================================================
Function: mongoose.connect
Bussiness logic: connect mongoose database
Clase: database
Bussiness logic: Crea los roles si no existen en base de datos por primera vez
Function: createRoles
=================================================================
Function: index
Clase: index
Bussiness logic: listen on port from server
🟢 Sun Feb 21 2021 13:31:19 GMT-0800 (Pacific Standard Time) Succes: Server listen on port 2000
🟢 Sun Feb 21 2021 13:31:19 GMT-0800 (Pacific Standard Time) Succes: Databse succesfull conected [object Object]
=================================================================
🔵 Sun Feb 21 2021 13:32:55 GMT-0800 (Pacific Standard Time) Info: Bitacorizando data de entrada...
Function: signin
Bussiness logic: Obtiene data para iniciar sesion
Clase: signin 
🔴 Sun Feb 21 2021 13:32:55 GMT-0800 (Pacific Standard Time) Error: No se encontro username
🔵 Sun Feb 21 2021 13:32:55 GMT-0800 (Pacific Standard Time) Info: Bitacorizando datos de salida
=================================================================
Clase: initalSetup
Clase: database
Function: mongoose.connect
Bussiness logic: connect mongoose database
=================================================================
Function: createRoles
Bussiness logic: Crea los roles si no existen en base de datos por primera vez
=================================================================
🟢 Sun Feb 21 2021 13:41:38 GMT-0800 (Pacific Standard Time) Succes: Server listen on port 2000
Bussiness logic: listen on port from server
Clase: index
Function: index
🟢 Sun Feb 21 2021 13:41:39 GMT-0800 (Pacific Standard Time) Succes: Databse succesfull conected [object Object]
=================================================================
Function: createRoles
Clase: database
Function: mongoose.connect
Bussiness logic: connect mongoose database
Bussiness logic: Crea los roles si no existen en base de datos por primera vez
=================================================================
Clase: initalSetup
=================================================================
Bussiness logic: listen on port from server
🟢 Sun Feb 21 2021 13:48:56 GMT-0800 (Pacific Standard Time) Succes: Server listen on port 2000
Function: index
Clase: index
🟢 Sun Feb 21 2021 13:48:56 GMT-0800 (Pacific Standard Time) Succes: Databse succesfull conected [object Object]
=================================================================
Bussiness logic: Crea los roles si no existen en base de datos por primera vez
Clase: database
Function: createRoles
Bussiness logic: connect mongoose database
Clase: initalSetup
=================================================================
Function: mongoose.connect
=================================================================
Clase: index
Function: index
🟢 Sun Feb 21 2021 13:49:13 GMT-0800 (Pacific Standard Time) Succes: Server listen on port 2000
Bussiness logic: listen on port from server
🟢 Sun Feb 21 2021 13:49:13 GMT-0800 (Pacific Standard Time) Succes: Databse succesfull conected [object Object]
=================================================================
Function: createRoles
Clase: database
Function: mongoose.connect
Bussiness logic: connect mongoose database
Bussiness logic: Crea los roles si no existen en base de datos por primera vez
Clase: initalSetup
=================================================================
=================================================================
🟢 Sun Feb 21 2021 13:49:29 GMT-0800 (Pacific Standard Time) Succes: Server listen on port 2000
Function: index
Bussiness logic: listen on port from server
Clase: index
🟢 Sun Feb 21 2021 13:49:29 GMT-0800 (Pacific Standard Time) Succes: Databse succesfull conected [object Object]
=================================================================
Bussiness logic: Crea los roles si no existen en base de datos por primera vez
=================================================================
Function: createRoles
Bussiness logic: connect mongoose database
Function: mongoose.connect
Clase: database
Clase: initalSetup
=================================================================
🟢 Sun Feb 21 2021 13:49:32 GMT-0800 (Pacific Standard Time) Succes: Server listen on port 2000
Bussiness logic: listen on port from server
Function: index
Clase: index
🟢 Sun Feb 21 2021 13:49:32 GMT-0800 (Pacific Standard Time) Succes: Databse succesfull conected [object Object]
=================================================================
Clase: signin 
Function: signin
Bussiness logic: Obtiene data para iniciar sesion
🔵 Sun Feb 21 2021 13:54:22 GMT-0800 (Pacific Standard Time) Info: Bitacorizando data de entrada...
=================================================================
Clase: initalSetup
Function: createRoles
Bussiness logic: Crea los roles si no existen en base de datos por primera vez
=================================================================
Clase: database
Function: mongoose.connect
Bussiness logic: connect mongoose database
=================================================================
🟢 Sun Feb 21 2021 13:55:44 GMT-0800 (Pacific Standard Time) Succes: Server listen on port 2000
Function: index
Bussiness logic: listen on port from server
Clase: index
🟢 Sun Feb 21 2021 13:55:44 GMT-0800 (Pacific Standard Time) Succes: Databse succesfull conected [object Object]
=================================================================
Clase: signin 
Function: signin
Bussiness logic: Obtiene data para iniciar sesion
🔵 Sun Feb 21 2021 13:55:48 GMT-0800 (Pacific Standard Time) Info: Bitacorizando data de entrada...
🔴 Sun Feb 21 2021 13:55:48 GMT-0800 (Pacific Standard Time) Error: No se encontro username
🔵 Sun Feb 21 2021 13:55:48 GMT-0800 (Pacific Standard Time) Info: Bitacorizando datos de salida
=================================================================
Clase: initalSetup
=================================================================
Function: mongoose.connect
Bussiness logic: connect mongoose database
Function: createRoles
Bussiness logic: Crea los roles si no existen en base de datos por primera vez
Clase: database
Clase: index
🟢 Sun Feb 21 2021 13:55:59 GMT-0800 (Pacific Standard Time) Succes: Server listen on port 2000
Function: index
Bussiness logic: listen on port from server
=================================================================
🟢 Sun Feb 21 2021 13:55:59 GMT-0800 (Pacific Standard Time) Succes: Databse succesfull conected [object Object]
=================================================================
Bussiness logic: Crea los roles si no existen en base de datos por primera vez
Clase: database
Function: mongoose.connect
Bussiness logic: connect mongoose database
Clase: initalSetup
=================================================================
Function: createRoles
=================================================================
🟢 Sun Feb 21 2021 13:56:02 GMT-0800 (Pacific Standard Time) Succes: Server listen on port 2000
Function: index
Bussiness logic: listen on port from server
Clase: index
🟢 Sun Feb 21 2021 13:56:02 GMT-0800 (Pacific Standard Time) Succes: Databse succesfull conected [object Object]
=================================================================
🔵 Sun Feb 21 2021 13:56:12 GMT-0800 (Pacific Standard Time) Info: Bitacorizando data de entrada...
Bussiness logic: Obtiene data para iniciar sesion
Function: signin
Clase: signin 
=================================================================
Clase: initalSetup
Function: createRoles
Clase: database
=================================================================
Bussiness logic: Crea los roles si no existen en base de datos por primera vez
Bussiness logic: connect mongoose database
Function: mongoose.connect
=================================================================
Bussiness logic: listen on port from server
🟢 Sun Feb 21 2021 13:57:25 GMT-0800 (Pacific Standard Time) Succes: Server listen on port 2000
Clase: index
Function: index
🟢 Sun Feb 21 2021 13:57:25 GMT-0800 (Pacific Standard Time) Succes: Databse succesfull conected [object Object]
=================================================================
Clase: initalSetup
Clase: database
Function: mongoose.connect
Bussiness logic: connect mongoose database
=================================================================
Clase: index
Function: index
Bussiness logic: listen on port from server
🟢 Sun Feb 21 2021 13:59:41 GMT-0800 (Pacific Standard Time) Succes: Server listen on port 2000
=================================================================
Function: createRoles
Bussiness logic: Crea los roles si no existen en base de datos por primera vez
🟢 Sun Feb 21 2021 13:59:41 GMT-0800 (Pacific Standard Time) Succes: Databse succesfull conected [object Object]
=================================================================
🔵 Sun Feb 21 2021 13:59:50 GMT-0800 (Pacific Standard Time) Info: Bitacorizando data de entrada...
Clase: signin 
Bussiness logic: Obtiene data para iniciar sesion
Function: signin
=================================================================
Clase: initalSetup
Function: createRoles
Bussiness logic: Crea los roles si no existen en base de datos por primera vez
=================================================================
Clase: database
Function: mongoose.connect
Bussiness logic: connect mongoose database
Clase: index
Bussiness logic: listen on port from server
Function: index
=================================================================
🟢 Sun Feb 21 2021 14:00:24 GMT-0800 (Pacific Standard Time) Succes: Server listen on port 2000
🟢 Sun Feb 21 2021 14:00:24 GMT-0800 (Pacific Standard Time) Succes: Databse succesfull conected [object Object]
=================================================================
Function: signin
Clase: signin 
Bussiness logic: Obtiene data para iniciar sesion
🔵 Sun Feb 21 2021 14:00:28 GMT-0800 (Pacific Standard Time) Info: Bitacorizando data de entrada...
=================================================================
Clase: initalSetup
=================================================================
Function: mongoose.connect
Bussiness logic: connect mongoose database
Clase: database
Bussiness logic: Crea los roles si no existen en base de datos por primera vez
Function: createRoles
=================================================================
Clase: index
Function: index
Bussiness logic: listen on port from server
🟢 Sun Feb 21 2021 14:00:40 GMT-0800 (Pacific Standard Time) Succes: Server listen on port 2000
🟢 Sun Feb 21 2021 14:00:40 GMT-0800 (Pacific Standard Time) Succes: Databse succesfull conected [object Object]
=================================================================
Clase: signin 
Function: signin
Bussiness logic: Obtiene data para iniciar sesion
🔵 Sun Feb 21 2021 14:00:44 GMT-0800 (Pacific Standard Time) Info: Bitacorizando data de entrada...
🔴 Sun Feb 21 2021 14:00:44 GMT-0800 (Pacific Standard Time) Error: No se encontro username
🔵 Sun Feb 21 2021 14:00:44 GMT-0800 (Pacific Standard Time) Info: Bitacorizando datos de salida
=================================================================
Bussiness logic: Obtiene data para iniciar sesion
Function: signin
Clase: signin 
🔵 Sun Feb 21 2021 14:01:33 GMT-0800 (Pacific Standard Time) Info: Bitacorizando data de entrada...
=================================================================
Clase: initalSetup
Function: createRoles
Bussiness logic: Crea los roles si no existen en base de datos por primera vez
=================================================================
Clase: database
Function: mongoose.connect
Bussiness logic: connect mongoose database
=================================================================
Function: index
Clase: index
🟢 Sun Feb 21 2021 14:02:32 GMT-0800 (Pacific Standard Time) Succes: Server listen on port 2000
Bussiness logic: listen on port from server
🟢 Sun Feb 21 2021 14:02:32 GMT-0800 (Pacific Standard Time) Succes: Databse succesfull conected [object Object]
=================================================================
Clase: initalSetup
Function: createRoles
Bussiness logic: Crea los roles si no existen en base de datos por primera vez
=================================================================
Clase: database
Function: mongoose.connect
Bussiness logic: connect mongoose database
=================================================================
Function: index
🟢 Sun Feb 21 2021 14:04:09 GMT-0800 (Pacific Standard Time) Succes: Server listen on port 2000
Bussiness logic: listen on port from server
Clase: index
🟢 Sun Feb 21 2021 14:04:09 GMT-0800 (Pacific Standard Time) Succes: Databse succesfull conected [object Object]
=================================================================
🔵 Sun Feb 21 2021 14:04:15 GMT-0800 (Pacific Standard Time) Info: Bitacorizando data de entrada...
Function: signin
Bussiness logic: Obtiene data para iniciar sesion
Clase: signin 
🔴 Sun Feb 21 2021 14:04:15 GMT-0800 (Pacific Standard Time) Error: El password no coincide con el username { roles:
   [ { _id: 6032cc9782106511b2ea1e47, name: 'admin' },
     { _id: 6032cc9782106511b2ea1e46, name: 'user' },
     { _id: 6032cc9782106511b2ea1e48, name: 'moderator' } ],
  _id: 6032d5bf55d95019ea36dad8,
  username: 'raustin',
  email: 'm.austin14.00@gmail.com',
  password:
   '$2a$10$C0/qBDmvM6E90WbukMQRruYDIdFCylVzBSmoXV9rFKzFRmC6yXF2C',
  createdAt: 2021-02-21T21:50:55.521Z,
  updatedAt: 2021-02-21T21:50:55.521Z }
🔵 Sun Feb 21 2021 14:04:15 GMT-0800 (Pacific Standard Time) Info: Bitacorizando datos de salida
=================================================================
Bussiness logic: Obtiene data para iniciar sesion
Function: signin
Clase: signin 
🔵 Sun Feb 21 2021 14:04:31 GMT-0800 (Pacific Standard Time) Info: Bitacorizando data de entrada...
🔴 Sun Feb 21 2021 14:04:31 GMT-0800 (Pacific Standard Time) Error: El password no coincide con el username { roles:
   [ { _id: 6032cc9782106511b2ea1e47, name: 'admin' },
     { _id: 6032cc9782106511b2ea1e46, name: 'user' },
     { _id: 6032cc9782106511b2ea1e48, name: 'moderator' } ],
  _id: 6032d5bf55d95019ea36dad8,
  username: 'raustin',
  email: 'm.austin14.00@gmail.com',
  password:
   '$2a$10$C0/qBDmvM6E90WbukMQRruYDIdFCylVzBSmoXV9rFKzFRmC6yXF2C',
  createdAt: 2021-02-21T21:50:55.521Z,
  updatedAt: 2021-02-21T21:50:55.521Z }
🔵 Sun Feb 21 2021 14:04:31 GMT-0800 (Pacific Standard Time) Info: Bitacorizando datos de salida
=================================================================
Bussiness logic: Obtiene data para iniciar sesion
Function: signin
Clase: signin 
🔵 Sun Feb 21 2021 14:04:34 GMT-0800 (Pacific Standard Time) Info: Bitacorizando datos de salida
🔴 Sun Feb 21 2021 14:04:34 GMT-0800 (Pacific Standard Time) Error: No se encontro username
🔵 Sun Feb 21 2021 14:04:34 GMT-0800 (Pacific Standard Time) Info: Bitacorizando data de entrada...
=================================================================
🔵 Sun Feb 21 2021 14:13:34 GMT-0800 (Pacific Standard Time) Info: Bitacorizando data de entrada...
Function: signin
Bussiness logic: Obtiene data para iniciar sesion
Clase: signin 
🔴 Sun Feb 21 2021 14:13:34 GMT-0800 (Pacific Standard Time) Error: No se pudo obtener req.body.user
🔵 Sun Feb 21 2021 14:13:34 GMT-0800 (Pacific Standard Time) Info: Bitacorizando datos de salida
=================================================================
🔵 Sun Feb 21 2021 14:13:53 GMT-0800 (Pacific Standard Time) Info: Bitacorizando data de entrada...
Clase: signin 
Function: signin
Bussiness logic: Obtiene data para iniciar sesion
🔴 Sun Feb 21 2021 14:13:53 GMT-0800 (Pacific Standard Time) Error: No se pudo obtener req.body.user
🔵 Sun Feb 21 2021 14:13:53 GMT-0800 (Pacific Standard Time) Info: Bitacorizando datos de salida
=================================================================
🔵 Sun Feb 21 2021 14:20:52 GMT-0800 (Pacific Standard Time) Info: Bitacorizando data de entrada...
Clase: signin 
Bussiness logic: Obtiene data para iniciar sesion
Function: signin
🔴 Sun Feb 21 2021 14:20:52 GMT-0800 (Pacific Standard Time) Error: No se encontro username
🔵 Sun Feb 21 2021 14:20:52 GMT-0800 (Pacific Standard Time) Info: Bitacorizando datos de salida
=================================================================
Clase: signin 
Function: signin
Bussiness logic: Obtiene data para iniciar sesion
🔵 Sun Feb 21 2021 14:21:07 GMT-0800 (Pacific Standard Time) Info: Bitacorizando data de entrada...
🔴 Sun Feb 21 2021 14:21:07 GMT-0800 (Pacific Standard Time) Error: El password no coincide con el username { roles:
   [ { _id: 6032cc9782106511b2ea1e47, name: 'admin' },
     { _id: 6032cc9782106511b2ea1e46, name: 'user' },
     { _id: 6032cc9782106511b2ea1e48, name: 'moderator' } ],
  _id: 6032d5bf55d95019ea36dad8,
  username: 'raustin',
  email: 'm.austin14.00@gmail.com',
  password:
   '$2a$10$C0/qBDmvM6E90WbukMQRruYDIdFCylVzBSmoXV9rFKzFRmC6yXF2C',
  createdAt: 2021-02-21T21:50:55.521Z,
  updatedAt: 2021-02-21T21:50:55.521Z }
🔵 Sun Feb 21 2021 14:21:07 GMT-0800 (Pacific Standard Time) Info: Bitacorizando datos de salida
=================================================================
🔵 Sun Feb 21 2021 14:21:33 GMT-0800 (Pacific Standard Time) Info: Bitacorizando data de entrada...
Function: signin
Bussiness logic: Obtiene data para iniciar sesion
Clase: signin 
🔴 Sun Feb 21 2021 14:21:33 GMT-0800 (Pacific Standard Time) Error: El password no coincide con el username { roles:
   [ { _id: 6032cc9782106511b2ea1e47, name: 'admin' },
     { _id: 6032cc9782106511b2ea1e46, name: 'user' },
     { _id: 6032cc9782106511b2ea1e48, name: 'moderator' } ],
  _id: 6032d5bf55d95019ea36dad8,
  username: 'raustin',
  email: 'm.austin14.00@gmail.com',
  password:
   '$2a$10$C0/qBDmvM6E90WbukMQRruYDIdFCylVzBSmoXV9rFKzFRmC6yXF2C',
  createdAt: 2021-02-21T21:50:55.521Z,
  updatedAt: 2021-02-21T21:50:55.521Z }
🔵 Sun Feb 21 2021 14:21:33 GMT-0800 (Pacific Standard Time) Info: Bitacorizando datos de salida
=================================================================
Function: signin
🔵 Sun Feb 21 2021 14:21:36 GMT-0800 (Pacific Standard Time) Info: Bitacorizando data de entrada...
Bussiness logic: Obtiene data para iniciar sesion
Clase: signin 
🔴 Sun Feb 21 2021 14:21:36 GMT-0800 (Pacific Standard Time) Error: No se encontro username
🔵 Sun Feb 21 2021 14:21:36 GMT-0800 (Pacific Standard Time) Info: Bitacorizando datos de salida
=================================================================
Clase: signin 
Function: signin
Bussiness logic: Obtiene data para iniciar sesion
🔵 Sun Feb 21 2021 14:24:13 GMT-0800 (Pacific Standard Time) Info: Bitacorizando data de entrada...
🔴 Sun Feb 21 2021 14:24:13 GMT-0800 (Pacific Standard Time) Error: El password no coincide con el username { roles:
   [ { _id: 6032cc9782106511b2ea1e47, name: 'admin' },
     { _id: 6032cc9782106511b2ea1e46, name: 'user' },
     { _id: 6032cc9782106511b2ea1e48, name: 'moderator' } ],
  _id: 6032d5bf55d95019ea36dad8,
  username: 'raustin',
  email: 'm.austin14.00@gmail.com',
  password:
   '$2a$10$C0/qBDmvM6E90WbukMQRruYDIdFCylVzBSmoXV9rFKzFRmC6yXF2C',
  createdAt: 2021-02-21T21:50:55.521Z,
  updatedAt: 2021-02-21T21:50:55.521Z }
🔵 Sun Feb 21 2021 14:24:13 GMT-0800 (Pacific Standard Time) Info: Bitacorizando datos de salida
=================================================================
Clase: signin 
Function: signin
Bussiness logic: Obtiene data para iniciar sesion
🔵 Sun Feb 21 2021 14:24:21 GMT-0800 (Pacific Standard Time) Info: Bitacorizando data de entrada...
🔴 Sun Feb 21 2021 14:24:21 GMT-0800 (Pacific Standard Time) Error: El password no coincide con el username { roles:
   [ { _id: 6032cc9782106511b2ea1e47, name: 'admin' },
     { _id: 6032cc9782106511b2ea1e46, name: 'user' },
     { _id: 6032cc9782106511b2ea1e48, name: 'moderator' } ],
  _id: 6032d5bf55d95019ea36dad8,
  username: 'raustin',
  email: 'm.austin14.00@gmail.com',
  password:
   '$2a$10$C0/qBDmvM6E90WbukMQRruYDIdFCylVzBSmoXV9rFKzFRmC6yXF2C',
  createdAt: 2021-02-21T21:50:55.521Z,
  updatedAt: 2021-02-21T21:50:55.521Z }
🔵 Sun Feb 21 2021 14:24:21 GMT-0800 (Pacific Standard Time) Info: Bitacorizando datos de salida
=================================================================
🔵 Sun Feb 21 2021 14:24:42 GMT-0800 (Pacific Standard Time) Info: Bitacorizando data de entrada...
Clase: signin 
Function: signin
Bussiness logic: Obtiene data para iniciar sesion
🔴 Sun Feb 21 2021 14:24:42 GMT-0800 (Pacific Standard Time) Error: El password no coincide con el username { roles:
   [ { _id: 6032cc9782106511b2ea1e47, name: 'admin' },
     { _id: 6032cc9782106511b2ea1e46, name: 'user' },
     { _id: 6032cc9782106511b2ea1e48, name: 'moderator' } ],
  _id: 6032d5bf55d95019ea36dad8,
  username: 'raustin',
  email: 'm.austin14.00@gmail.com',
  password:
   '$2a$10$C0/qBDmvM6E90WbukMQRruYDIdFCylVzBSmoXV9rFKzFRmC6yXF2C',
  createdAt: 2021-02-21T21:50:55.521Z,
  updatedAt: 2021-02-21T21:50:55.521Z }
🔵 Sun Feb 21 2021 14:24:42 GMT-0800 (Pacific Standard Time) Info: Bitacorizando datos de salida
=================================================================
=================================================================
Clase: database
Function: mongoose.connect
Bussiness logic: connect mongoose database
Clase: initalSetup
Bussiness logic: Crea los roles si no existen en base de datos por primera vez
Function: createRoles
Clase: index
🟢 Sun Feb 21 2021 14:25:20 GMT-0800 (Pacific Standard Time) Succes: Server listen on port 2000
Function: index
Bussiness logic: listen on port from server
=================================================================
🟢 Sun Feb 21 2021 14:25:20 GMT-0800 (Pacific Standard Time) Succes: Databse succesfull conected [object Object]
=================================================================
🔵 Sun Feb 21 2021 14:25:59 GMT-0800 (Pacific Standard Time) Info: Bitacorizando data de entrada...
Function: signin
Bussiness logic: Obtiene data para iniciar sesion
Clase: signin 
🔴 Sun Feb 21 2021 14:26:00 GMT-0800 (Pacific Standard Time) Error: El password no coincide con el username { roles:
   [ { _id: 6032cc9782106511b2ea1e47, name: 'admin' },
     { _id: 6032cc9782106511b2ea1e46, name: 'user' },
     { _id: 6032cc9782106511b2ea1e48, name: 'moderator' } ],
  _id: 6032d5bf55d95019ea36dad8,
  username: 'raustin',
  email: 'm.austin14.00@gmail.com',
  password:
   '$2a$10$C0/qBDmvM6E90WbukMQRruYDIdFCylVzBSmoXV9rFKzFRmC6yXF2C',
  createdAt: 2021-02-21T21:50:55.521Z,
  updatedAt: 2021-02-21T21:50:55.521Z }
🔵 Sun Feb 21 2021 14:26:00 GMT-0800 (Pacific Standard Time) Info: Bitacorizando datos de salida
=================================================================
Clase: initalSetup
Function: createRoles
Bussiness logic: Crea los roles si no existen en base de datos por primera vez
=================================================================
Clase: database
Function: mongoose.connect
=================================================================
Bussiness logic: connect mongoose database
Clase: index
Function: index
Bussiness logic: listen on port from server
🟢 Sun Feb 21 2021 14:26:32 GMT-0800 (Pacific Standard Time) Succes: Server listen on port 2000
🟢 Sun Feb 21 2021 14:26:32 GMT-0800 (Pacific Standard Time) Succes: Databse succesfull conected [object Object]
=================================================================
🔵 Sun Feb 21 2021 14:28:48 GMT-0800 (Pacific Standard Time) Info: Bitacorizando data de entrada...
Function: signin
Bussiness logic: Obtiene data para iniciar sesion
Clase: signin 
🔴 Sun Feb 21 2021 14:28:48 GMT-0800 (Pacific Standard Time) Error: El password no coincide con el username
🔵 Sun Feb 21 2021 14:28:48 GMT-0800 (Pacific Standard Time) Info: Bitacorizando datos de salida
=================================================================
Bussiness logic: Obtiene data para iniciar sesion
Function: signin
Clase: signin 
🔵 Sun Feb 21 2021 14:28:56 GMT-0800 (Pacific Standard Time) Info: Bitacorizando data de entrada...
🔴 Sun Feb 21 2021 14:28:56 GMT-0800 (Pacific Standard Time) Error: El password no coincide con el username
🔵 Sun Feb 21 2021 14:28:56 GMT-0800 (Pacific Standard Time) Info: Bitacorizando datos de salida
=================================================================
=================================================================
Clase: database
Function: mongoose.connect
Bussiness logic: connect mongoose database
Function: createRoles
Bussiness logic: Crea los roles si no existen en base de datos por primera vez
Clase: initalSetup
=================================================================
Clase: index
Function: index
Bussiness logic: listen on port from server
🟢 Sun Feb 21 2021 14:30:06 GMT-0800 (Pacific Standard Time) Succes: Server listen on port 2000
🟢 Sun Feb 21 2021 14:30:06 GMT-0800 (Pacific Standard Time) Succes: Databse succesfull conected [object Object]
=================================================================
=================================================================
Function: mongoose.connect
Clase: database
Bussiness logic: connect mongoose database
Function: createRoles
Bussiness logic: Crea los roles si no existen en base de datos por primera vez
Clase: initalSetup
=================================================================
Clase: index
Function: index
Bussiness logic: listen on port from server
🟢 Sun Feb 21 2021 14:30:13 GMT-0800 (Pacific Standard Time) Succes: Server listen on port 2000
🟢 Sun Feb 21 2021 14:30:13 GMT-0800 (Pacific Standard Time) Succes: Databse succesfull conected [object Object]
=================================================================
Bussiness logic: Crea los roles si no existen en base de datos por primera vez
Clase: database
Function: mongoose.connect
Bussiness logic: connect mongoose database
Function: createRoles
=================================================================
Clase: initalSetup
=================================================================
Bussiness logic: listen on port from server
🟢 Sun Feb 21 2021 14:31:12 GMT-0800 (Pacific Standard Time) Succes: Server listen on port 2000
Clase: index
Function: index
🟢 Sun Feb 21 2021 14:31:12 GMT-0800 (Pacific Standard Time) Succes: Databse succesfull conected [object Object]
=================================================================
=================================================================
Function: mongoose.connect
Clase: database
Bussiness logic: connect mongoose database
Clase: initalSetup
Bussiness logic: Crea los roles si no existen en base de datos por primera vez
Function: createRoles
=================================================================
🟢 Sun Feb 21 2021 14:31:28 GMT-0800 (Pacific Standard Time) Succes: Server listen on port 2000
Clase: index
Bussiness logic: listen on port from server
Function: index
🟢 Sun Feb 21 2021 14:31:28 GMT-0800 (Pacific Standard Time) Succes: Databse succesfull conected [object Object]
=================================================================
🔵 Sun Feb 21 2021 14:31:34 GMT-0800 (Pacific Standard Time) Info: Bitacorizando data de entrada...
Bussiness logic: Obtiene data para iniciar sesion
Function: signin
Clase: signin 
🔴 Sun Feb 21 2021 14:31:34 GMT-0800 (Pacific Standard Time) Error: El password no coincide con el username
🔵 Sun Feb 21 2021 14:31:34 GMT-0800 (Pacific Standard Time) Info: Bitacorizando datos de salida
=================================================================
Clase: signin 
Bussiness logic: Obtiene data para iniciar sesion
Function: signin
🔵 Sun Feb 21 2021 14:32:21 GMT-0800 (Pacific Standard Time) Info: Bitacorizando data de entrada...
🔴 Sun Feb 21 2021 14:32:21 GMT-0800 (Pacific Standard Time) Error: El password no coincide con el username
🔵 Sun Feb 21 2021 14:32:21 GMT-0800 (Pacific Standard Time) Info: Bitacorizando datos de salida
Clase: signin 
=================================================================
Function: signin
Bussiness logic: Obtiene data para iniciar sesion
🔵 Sun Feb 21 2021 14:32:27 GMT-0800 (Pacific Standard Time) Info: Bitacorizando data de entrada...
🔴 Sun Feb 21 2021 14:32:27 GMT-0800 (Pacific Standard Time) Error: El password no coincide con el username
🔵 Sun Feb 21 2021 14:32:27 GMT-0800 (Pacific Standard Time) Info: Bitacorizando datos de salida
=================================================================
Clase: initalSetup
Function: mongoose.connect
Clase: database
Bussiness logic: connect mongoose database
Function: createRoles
Bussiness logic: Crea los roles si no existen en base de datos por primera vez
=================================================================
=================================================================
Clase: index
Function: index
🟢 Sun Feb 21 2021 14:32:41 GMT-0800 (Pacific Standard Time) Succes: Server listen on port 2000
Bussiness logic: listen on port from server
🟢 Sun Feb 21 2021 14:32:41 GMT-0800 (Pacific Standard Time) Succes: Databse succesfull conected [object Object]
=================================================================
🔵 Sun Feb 21 2021 14:32:42 GMT-0800 (Pacific Standard Time) Info: Bitacorizando data de entrada...
Bussiness logic: Obtiene data para iniciar sesion
Function: signin
Clase: signin 
🔴 Sun Feb 21 2021 14:32:42 GMT-0800 (Pacific Standard Time) Error: El password no coincide con el username
🔵 Sun Feb 21 2021 14:32:42 GMT-0800 (Pacific Standard Time) Info: Bitacorizando datos de salida
=================================================================
Clase: signin 
Function: signin
Bussiness logic: Obtiene data para iniciar sesion
🔵 Sun Feb 21 2021 14:33:57 GMT-0800 (Pacific Standard Time) Info: Bitacorizando data de entrada...
🔴 Sun Feb 21 2021 14:33:57 GMT-0800 (Pacific Standard Time) Error: El password no coincide con el username
🔵 Sun Feb 21 2021 14:33:57 GMT-0800 (Pacific Standard Time) Info: Bitacorizando datos de salida
=================================================================
Clase: signin 
Bussiness logic: Obtiene data para iniciar sesion
Function: signin
🔵 Sun Feb 21 2021 14:36:18 GMT-0800 (Pacific Standard Time) Info: Bitacorizando data de entrada...
🔴 Sun Feb 21 2021 14:36:18 GMT-0800 (Pacific Standard Time) Error: El password no coincide con el username
🔵 Sun Feb 21 2021 14:36:18 GMT-0800 (Pacific Standard Time) Info: Bitacorizando datos de salida
=================================================================
=================================================================
Clase: database
Bussiness logic: connect mongoose database
Function: mongoose.connect
Clase: initalSetup
Bussiness logic: Crea los roles si no existen en base de datos por primera vez
Function: createRoles
=================================================================
Function: index
🟢 Sun Feb 21 2021 14:37:31 GMT-0800 (Pacific Standard Time) Succes: Server listen on port 2000
Bussiness logic: listen on port from server
Clase: index
🟢 Sun Feb 21 2021 14:37:31 GMT-0800 (Pacific Standard Time) Succes: Databse succesfull conected [object Object]
=================================================================
Clase: signin 
Function: signin
Bussiness logic: Obtiene data para iniciar sesion
🔵 Sun Feb 21 2021 14:37:35 GMT-0800 (Pacific Standard Time) Info: Bitacorizando data de entrada...
🔴 Sun Feb 21 2021 14:37:35 GMT-0800 (Pacific Standard Time) Error: El password no coincide con el username
🔵 Sun Feb 21 2021 14:37:35 GMT-0800 (Pacific Standard Time) Info: Bitacorizando datos de salida
=================================================================
🔵 Sun Feb 21 2021 14:37:51 GMT-0800 (Pacific Standard Time) Info: Bitacorizando data de entrada...
Clase: signin 
Function: signin
Bussiness logic: Obtiene data para iniciar sesion
🔴 Sun Feb 21 2021 14:37:51 GMT-0800 (Pacific Standard Time) Error: El password no coincide con el username
🔵 Sun Feb 21 2021 14:37:51 GMT-0800 (Pacific Standard Time) Info: Bitacorizando datos de salida
=================================================================
Clase: initalSetup
Function: createRoles
Function: mongoose.connect
Bussiness logic: connect mongoose database
=================================================================
Bussiness logic: Crea los roles si no existen en base de datos por primera vez
Clase: database
=================================================================
Clase: index
Function: index
Bussiness logic: listen on port from server
🟢 Sun Feb 21 2021 14:38:08 GMT-0800 (Pacific Standard Time) Succes: Server listen on port 2000
🟢 Sun Feb 21 2021 14:38:08 GMT-0800 (Pacific Standard Time) Succes: Databse succesfull conected [object Object]
=================================================================
Clase: signin 
Function: signin
Bussiness logic: Obtiene data para iniciar sesion
🔵 Sun Feb 21 2021 14:38:08 GMT-0800 (Pacific Standard Time) Info: Bitacorizando data de entrada...
🔴 Sun Feb 21 2021 14:38:08 GMT-0800 (Pacific Standard Time) Error: El password no coincide con el username
🔵 Sun Feb 21 2021 14:38:08 GMT-0800 (Pacific Standard Time) Info: Bitacorizando datos de salida
=================================================================
Clase: initalSetup
=================================================================
Function: mongoose.connect
Bussiness logic: connect mongoose database
Function: createRoles
Bussiness logic: Crea los roles si no existen en base de datos por primera vez
Clase: database
=================================================================
Clase: index
🟢 Sun Feb 21 2021 14:38:29 GMT-0800 (Pacific Standard Time) Succes: Server listen on port 2000
Bussiness logic: listen on port from server
Function: index
🟢 Sun Feb 21 2021 14:38:29 GMT-0800 (Pacific Standard Time) Succes: Databse succesfull conected [object Object]
=================================================================
Clase: signin 
Function: signin
Bussiness logic: Obtiene data para iniciar sesion
🔵 Sun Feb 21 2021 14:38:30 GMT-0800 (Pacific Standard Time) Info: Bitacorizando data de entrada...
🔴 Sun Feb 21 2021 14:38:30 GMT-0800 (Pacific Standard Time) Error: El password no coincide con el username
🔵 Sun Feb 21 2021 14:38:30 GMT-0800 (Pacific Standard Time) Info: Bitacorizando datos de salida
=================================================================
Clase: signin 
Function: signin
Bussiness logic: Obtiene data para iniciar sesion
🔵 Sun Feb 21 2021 14:38:33 GMT-0800 (Pacific Standard Time) Info: Bitacorizando data de entrada...
🔴 Sun Feb 21 2021 14:38:33 GMT-0800 (Pacific Standard Time) Error: El password no coincide con el username
🔵 Sun Feb 21 2021 14:38:33 GMT-0800 (Pacific Standard Time) Info: Bitacorizando datos de salida
=================================================================
Function: signin
Clase: signin 
Bussiness logic: Obtiene data para iniciar sesion
🔵 Sun Feb 21 2021 14:38:42 GMT-0800 (Pacific Standard Time) Info: Bitacorizando data de entrada...
🟢 Sun Feb 21 2021 14:38:42 GMT-0800 (Pacific Standard Time) Succes: Usuario encontrado con contraseña correcta
🟢 Sun Feb 21 2021 14:38:42 GMT-0800 (Pacific Standard Time) Succes: exito, token expira en 24hrs
🔵 Sun Feb 21 2021 14:38:42 GMT-0800 (Pacific Standard Time) Info: Bitacorizando datos de salida
